18.7638	68.3588	Abisko10
18.7647	68.3588	Abisko1	
18.7655	68.3588	Abikso2
18.7664	68.3588 Abikso3
18.7638	68.3579	Abisko11
18.7647	68.3579	Abisko4	
18.7655	68.3579	Abikso5
18.7664	68.3579 Abikso6
18.7638	68.3571	Abisko12
18.7647	68.3571	Abisko7	
18.7655	68.3571	Abikso8
18.7664	68.3571 Abikso9
18.7638	68.3562	Abisko13
18.7647	68.3562	Abisko14	
18.7655	68.3562	Abisko15
18.7664	68.3562 Abisko16
