18.7629	68.3588	510.703	Abisko17
18.7647	68.3588	538.28	Abisko1	
18.7655	68.3588	538.28	Abisko2
18.7664	68.3588 376.88  Abisko3
18.7629	68.3579	0.207	Abisko18
18.7638 68.3579 1.53	Abisko11
18.7647	68.3579	0.0	Abisko4	
18.7655	68.3579	0.0	Abisko5
18.7664	68.3579 216.73  Abisko6
18.7629	68.3571	19.594	Abisko19
18.7638 68.3571	5.75	Abisko12
18.7647	68.3571	59.473	Abisko7	
18.7655	68.3571	252.263	Abisko8
18.7664	68.3571 252.263 Abisko9
18.7629	68.3562	250.263	Abisko20
18.7638	68.3562	250.263	Abisko13
18.7647	68.3562	234.333	Abisko14	
18.7655	68.3562	21.639	Abisko15
18.7664	68.3562 21.639  Abisko16
18.7629	68.3553	19.639	Abisko20
18.7638	68.3553	19.639	Abisko21
18.7647	68.3553	23.65	Abisko22	
18.7655	68.3553	49.98	Abisko23
18.7664	68.3553	49.98	Abisko24
18.7638	68.3588	535.27	Abisko10
