18.9623	68.3501
18.9632	68.3501
18.9632	68.351
18.9641	68.3415
18.9641	68.3423
18.9641	68.3467
18.9641	68.3493
18.9641	68.3501
18.9641	68.351
18.9649	68.3423
18.9649	68.3441
18.9649	68.3475
18.9649	68.3493
18.9649	68.3501
18.9649	68.351
18.9658	68.3406
18.9658	68.3441
18.9658	68.3449
18.9658	68.3458
18.9658	68.3475
18.9667	68.3441
18.9667	68.3458
18.9667	68.3475
18.9667	68.3484
18.9667	68.3493
18.9667	68.351
18.9675	68.338
18.9675	68.3441
18.9675	68.3475
18.9675	68.3493
18.9675	68.351
18.9684	68.3389
18.9684	68.3397
18.9684	68.3406
18.9684	68.3432
18.9684	68.3449
18.9684	68.3458
18.9684	68.3467
18.9684	68.3475
18.9684	68.3493
18.9684	68.3501
18.9684	68.351
18.9693	68.3371
18.9693	68.3389
18.9693	68.3397
18.9693	68.3406
18.9693	68.3415
18.9693	68.3449
18.9693	68.3458
18.9693	68.3475
18.9693	68.3484
18.9693	68.3493
18.9693	68.351
18.9701	68.3345
18.9701	68.3371
18.9701	68.3389
18.9701	68.3406
18.9701	68.3449
18.9701	68.3458
18.9701	68.3475
18.9701	68.3484
18.9701	68.3501
18.9701	68.351
18.971	68.3441
18.971	68.3449
18.971	68.3467
18.971	68.3484
18.971	68.3501
18.9719	68.338
18.9719	68.3389
18.9719	68.3397
18.9719	68.3441
18.9719	68.3458
18.9719	68.3467
18.9719	68.3484
18.9719	68.3493
18.9719	68.3501
18.9727	68.3319
18.9727	68.3354
18.9727	68.338
18.9727	68.3389
18.9727	68.3397
18.9727	68.3415
18.9727	68.3432
18.9727	68.3458
18.9727	68.3467
18.9727	68.3475
18.9727	68.3493
18.9727	68.3501
18.9736	68.3328
18.9736	68.3345
18.9736	68.3415
18.9736	68.3432
18.9736	68.3449
18.9736	68.3467
18.9736	68.3484
18.9736	68.3501
18.9736	68.3519
18.9745	68.3345
18.9745	68.338
18.9745	68.3389
18.9745	68.3397
18.9745	68.3406
18.9745	68.3415
18.9745	68.3449
18.9745	68.3467
18.9745	68.3484
18.9745	68.3501
18.9753	68.3345
18.9753	68.3363
18.9753	68.338
18.9753	68.3389
18.9753	68.3397
18.9753	68.3406
18.9753	68.3423
18.9753	68.3432
18.9753	68.3441
18.9753	68.3449
18.9753	68.3467
18.9753	68.3493
18.9753	68.351
18.9753	68.3519
18.9762	68.338
18.9762	68.3406
18.9762	68.3441
18.9762	68.3449
18.9762	68.3458
18.9762	68.3475
18.9762	68.351
18.9762	68.3519
18.9771	68.3284
18.9771	68.338
18.9771	68.3406
18.9771	68.3458
18.9779	68.338
18.9779	68.3406
18.9779	68.3423
18.9779	68.3432
18.9779	68.3441
18.9779	68.3493
18.9779	68.3501
18.9779	68.3519
18.9788	68.3276
18.9788	68.3354
18.9788	68.338
18.9788	68.3406
18.9788	68.3423
18.9788	68.3432
18.9788	68.3467
18.9788	68.3484
18.9788	68.3493
18.9788	68.3519
18.9788	68.3527
18.9797	68.3354
18.9797	68.338
18.9797	68.3432
18.9797	68.3467
18.9805	68.3354
18.9805	68.3441
18.9805	68.3449
18.9805	68.3501
18.9814	68.3354
18.9814	68.3415
18.9814	68.3432
18.9814	68.3501
18.9814	68.351
18.9814	68.3536
18.9823	68.3354
18.9823	68.3423
18.9823	68.3458
18.9823	68.3475
18.9823	68.3493
18.9823	68.3501
18.9823	68.351
18.9823	68.3527
18.9823	68.3545
18.9831	68.3328
18.9831	68.3354
18.9831	68.3423
18.9831	68.3441
18.9831	68.3467
18.9831	68.3475
18.9831	68.3493
18.9831	68.3501
18.9831	68.3519
18.984	68.3328
18.984	68.3354
18.984	68.3371
18.984	68.3441
18.984	68.3458
18.984	68.3467
18.984	68.3475
18.9849	68.3354
18.9849	68.3397
18.9849	68.3432
18.9849	68.3458
18.9849	68.3484
18.9849	68.351
18.9849	68.3536
18.9857	68.3328
18.9857	68.3354
18.9857	68.3389
18.9857	68.3432
18.9857	68.3484
18.9857	68.351
18.9857	68.3527
18.9866	68.331
18.9866	68.3328
18.9866	68.3336
18.9866	68.3354
18.9866	68.338
18.9866	68.3441
18.9866	68.3449
18.9866	68.3458
18.9866	68.3467
18.9866	68.3484
18.9866	68.351
18.9866	68.3519
18.9875	68.3302
18.9875	68.3336
18.9875	68.3354
18.9875	68.3415
18.9875	68.3423
18.9875	68.3449
18.9875	68.3458
18.9875	68.3467
18.9875	68.3493
18.9875	68.3501
18.9875	68.3545
18.9883	68.3284
18.9883	68.3302
18.9883	68.3319
18.9883	68.3449
18.9883	68.3458
18.9883	68.3484
18.9883	68.3527
18.9892	68.3267
18.9892	68.3276
18.9892	68.3284
18.9892	68.3328
18.9892	68.3345
18.9892	68.3449
18.9892	68.3458
18.9892	68.3475
18.9892	68.3484
18.9892	68.351
18.9892	68.3527
18.9901	68.3258
18.9901	68.3267
18.9901	68.3276
18.9901	68.3319
18.9901	68.3328
18.9901	68.3345
18.9901	68.3354
18.9901	68.3475
18.9901	68.3484
18.9901	68.3493
18.9909	68.3258
18.9909	68.3319
18.9909	68.3406
18.9909	68.3415
18.9909	68.3432
18.9909	68.3441
18.9909	68.3467
18.9909	68.3475
18.9909	68.3484
18.9909	68.3493
18.9909	68.3501
18.9909	68.3536
18.9909	68.3545
18.9918	68.3319
18.9918	68.3345
18.9918	68.338
18.9918	68.3432
18.9918	68.3441
18.9918	68.3467
18.9918	68.3484
18.9918	68.3501
18.9918	68.3527
18.9918	68.3545
18.9918	68.3553
18.9918	68.3562
18.9927	68.3319
18.9927	68.3345
18.9927	68.3458
18.9927	68.3467
18.9927	68.3475
18.9927	68.3519
18.9927	68.3536
18.9927	68.3545
18.9927	68.3553
18.9927	68.3562
18.9936	68.3232
18.9936	68.3293
18.9936	68.3345
18.9936	68.3432
18.9936	68.3458
18.9936	68.3467
18.9936	68.3475
18.9936	68.351
18.9936	68.3536
18.9936	68.3545
18.9936	68.3571
18.9944	68.3232
18.9944	68.3293
18.9944	68.3345
18.9944	68.3397
18.9944	68.3458
18.9944	68.3484
18.9944	68.3493
18.9944	68.351
18.9944	68.3545
18.9944	68.3553
18.9944	68.3571
18.9953	68.3224
18.9953	68.3276
18.9953	68.3293
18.9953	68.3328
18.9953	68.3397
18.9953	68.3458
18.9953	68.3493
18.9953	68.351
18.9953	68.3519
18.9953	68.3571
18.9962	68.3241
18.9962	68.3276
18.9962	68.3319
18.9962	68.3354
18.9962	68.3363
18.9962	68.3423
18.9962	68.3441
18.9962	68.3458
18.9962	68.3467
18.9962	68.351
18.9962	68.3519
18.9962	68.3571
18.997	68.3232
18.997	68.3241
18.997	68.3276
18.997	68.3319
18.997	68.3354
18.997	68.3415
18.997	68.3423
18.997	68.3432
18.997	68.3458
18.997	68.3467
18.997	68.3501
18.997	68.351
18.997	68.3519
18.9979	68.3232
18.9979	68.3267
18.9979	68.331
18.9979	68.3319
18.9979	68.3345
18.9979	68.338
18.9979	68.3406
18.9979	68.3432
18.9979	68.3458
18.9979	68.3475
18.9979	68.3501
18.9979	68.351
18.9979	68.3519
18.9979	68.3527
18.9979	68.3545
18.9979	68.3562
18.9988	68.3241
18.9988	68.3258
18.9988	68.3293
18.9988	68.3328
18.9988	68.3345
18.9988	68.3363
18.9988	68.3371
18.9988	68.338
18.9988	68.3389
18.9988	68.3397
18.9988	68.3449
18.9988	68.3458
18.9988	68.3467
18.9988	68.3536
18.9996	68.3206
18.9996	68.3224
18.9996	68.3258
18.9996	68.3284
18.9996	68.3328
18.9996	68.3345
18.9996	68.3389
18.9996	68.3423
18.9996	68.3441
18.9996	68.3458
18.9996	68.3467
18.9996	68.3484
18.9996	68.3493
18.9996	68.351
18.9996	68.3536
18.9996	68.3553
19.0005	68.3224
19.0005	68.325
19.0005	68.3258
19.0005	68.3276
19.0005	68.3284
19.0005	68.3345
19.0005	68.3363
19.0005	68.3389
19.0005	68.3397
19.0005	68.3415
19.0005	68.3441
19.0005	68.3458
19.0005	68.3467
19.0005	68.3493
19.0005	68.351
19.0005	68.3527
19.0005	68.3536
19.0005	68.3545
19.0005	68.3553
19.0014	68.3198
19.0014	68.3224
19.0014	68.325
19.0014	68.3267
19.0014	68.3284
19.0014	68.3345
19.0014	68.3363
19.0014	68.3449
19.0014	68.3475
19.0014	68.3493
19.0014	68.3545
19.0014	68.3553
19.0022	68.3198
19.0022	68.3224
19.0022	68.325
19.0022	68.3267
19.0022	68.3284
19.0022	68.3345
19.0022	68.3354
19.0022	68.3423
19.0022	68.3475
19.0022	68.3493
19.0022	68.3501
19.0022	68.3545
19.0022	68.3553
19.0031	68.3224
19.0031	68.325
19.0031	68.3293
19.0031	68.3345
19.0031	68.3363
19.0031	68.3415
19.0031	68.3467
19.0031	68.3475
19.0031	68.3484
19.0031	68.3501
19.0031	68.3536
19.0031	68.3545
19.0031	68.3553
19.0031	68.3562
19.004	68.3224
19.004	68.3293
19.004	68.3354
19.004	68.3363
19.004	68.3423
19.004	68.3449
19.004	68.3467
19.004	68.3501
19.004	68.3536
19.004	68.3553
19.004	68.3562
19.0048	68.3224
19.0048	68.3232
19.0048	68.3241
19.0048	68.3293
19.0048	68.3319
19.0048	68.3354
19.0048	68.3371
19.0048	68.3389
19.0048	68.3423
19.0048	68.3441
19.0048	68.351
19.0057	68.3198
19.0057	68.3206
19.0057	68.3232
19.0057	68.3319
19.0057	68.3354
19.0057	68.3363
19.0057	68.3389
19.0057	68.3406
19.0057	68.3423
19.0057	68.3432
19.0057	68.3449
19.0057	68.3475
19.0057	68.3484
19.0057	68.351
19.0057	68.3519
19.0057	68.3545
19.0057	68.3562
19.0066	68.3198
19.0066	68.3206
19.0066	68.3224
19.0066	68.3232
19.0066	68.3276
19.0066	68.3293
19.0066	68.3336
19.0066	68.3345
19.0066	68.3363
19.0066	68.3397
19.0066	68.3449
19.0066	68.3458
19.0066	68.3467
19.0066	68.3484
19.0066	68.3493
19.0066	68.3501
19.0066	68.351
19.0066	68.3519
19.0066	68.3527
19.0066	68.3536
19.0066	68.3545
19.0066	68.3553
19.0066	68.3562
19.0074	68.3198
19.0074	68.3206
19.0074	68.3224
19.0074	68.3241
19.0074	68.3276
19.0074	68.3293
19.0074	68.3345
19.0074	68.3363
19.0074	68.338
19.0074	68.3458
19.0074	68.3467
19.0074	68.3484
19.0074	68.3493
19.0074	68.3501
19.0074	68.351
19.0074	68.3519
19.0074	68.3553
19.0074	68.3562
19.0083	68.3198
19.0083	68.3224
19.0083	68.3232
19.0083	68.3276
19.0083	68.3293
19.0083	68.331
19.0083	68.338
19.0083	68.3389
19.0083	68.3423
19.0083	68.3449
19.0083	68.3467
19.0083	68.3493
19.0083	68.3519
19.0083	68.3553
19.0092	68.3189
19.0092	68.3232
19.0092	68.3293
19.0092	68.3302
19.0092	68.331
19.0092	68.3336
19.0092	68.338
19.0092	68.3389
19.0092	68.3415
19.0092	68.3441
19.0092	68.3449
19.0092	68.3467
19.0092	68.3493
19.0092	68.351
19.0092	68.3519
19.0092	68.3553
19.01	68.3189
19.01	68.3198
19.01	68.3232
19.01	68.3258
19.01	68.3276
19.01	68.3293
19.01	68.3302
19.01	68.3389
19.01	68.3441
19.01	68.3493
19.01	68.351
19.01	68.3519
19.01	68.3536
19.0109	68.3189
19.0109	68.3198
19.0109	68.3232
19.0109	68.3241
19.0109	68.3258
19.0109	68.3276
19.0109	68.3293
19.0109	68.3302
19.0109	68.331
19.0109	68.3319
19.0109	68.3449
19.0109	68.3458
19.0109	68.3467
19.0109	68.3475
19.0109	68.3484
19.0109	68.3501
19.0109	68.351
19.0109	68.3519
19.0109	68.3536
19.0118	68.3189
19.0118	68.3224
19.0118	68.3232
19.0118	68.3258
19.0118	68.3276
19.0118	68.3319
19.0118	68.3354
19.0118	68.3458
19.0118	68.3467
19.0118	68.3475
19.0118	68.3484
19.0118	68.3501
19.0118	68.3519
19.0118	68.3536
19.0126	68.3224
19.0126	68.3232
19.0126	68.3241
19.0126	68.325
19.0126	68.3258
19.0126	68.3267
19.0126	68.3276
19.0126	68.3336
19.0126	68.3501
19.0126	68.3519
19.0126	68.3545
19.0126	68.3562
19.0135	68.3189
19.0135	68.3224
19.0135	68.3258
19.0135	68.3267
19.0135	68.3276
19.0135	68.351
19.0135	68.3527
19.0135	68.3562
19.0144	68.325
19.0144	68.3267
19.0144	68.3276
19.0144	68.3284
19.0144	68.3302
19.0144	68.331
19.0144	68.3345
19.0144	68.3371
19.0144	68.3389
19.0144	68.3423
19.0144	68.3432
19.0144	68.3441
19.0144	68.3484
19.0144	68.3493
19.0144	68.3519
19.0144	68.3527
19.0144	68.3562
19.0152	68.3198
19.0152	68.3224
19.0152	68.325
19.0152	68.3284
19.0152	68.3293
19.0152	68.3302
19.0152	68.331
19.0152	68.3363
19.0152	68.3389
19.0152	68.3397
19.0152	68.3406
19.0152	68.3423
19.0152	68.3484
19.0152	68.3501
19.0152	68.351
19.0152	68.3527
19.0152	68.3553
19.0152	68.3562
19.0161	68.3198
19.0161	68.3206
19.0161	68.3215
19.0161	68.3224
19.0161	68.3284
19.0161	68.3293
19.0161	68.3302
19.0161	68.3328
19.0161	68.3336
19.0161	68.3354
19.0161	68.3363
19.0161	68.3397
19.0161	68.3475
19.0161	68.3484
19.0161	68.3501
19.0161	68.351
19.0161	68.3519
19.0161	68.3527
19.0161	68.3562
19.017	68.3206
19.017	68.3215
19.017	68.3224
19.017	68.3241
19.017	68.3258
19.017	68.3284
19.017	68.3302
19.017	68.3328
19.017	68.3354
19.017	68.3363
19.017	68.3441
19.017	68.3475
19.017	68.3484
19.017	68.3493
19.017	68.3501
19.017	68.3527
19.0178	68.3224
19.0178	68.3241
19.0178	68.3258
19.0178	68.331
19.0178	68.3328
19.0178	68.3345
19.0178	68.3363
19.0178	68.338
19.0178	68.3397
19.0178	68.3415
19.0178	68.3423
19.0178	68.3432
19.0178	68.3449
19.0178	68.3475
19.0178	68.3501
19.0178	68.3519
19.0178	68.3527
19.0178	68.3562
19.0187	68.3241
19.0187	68.325
19.0187	68.331
19.0187	68.3336
19.0187	68.3354
19.0187	68.338
19.0187	68.3389
19.0187	68.3415
19.0187	68.3449
19.0187	68.3467
19.0187	68.3519
19.0187	68.3527
19.0187	68.3536
19.0187	68.3562
19.0196	68.3232
19.0196	68.3241
19.0196	68.325
19.0196	68.331
19.0196	68.3319
19.0196	68.3328
19.0196	68.3354
19.0196	68.3371
19.0196	68.3406
19.0196	68.3415
19.0196	68.3458
19.0196	68.3467
19.0196	68.3527
19.0196	68.3536
19.0196	68.3545
19.0196	68.3562
19.0204	68.3241
19.0204	68.331
19.0204	68.3328
19.0204	68.3389
19.0204	68.3406
19.0204	68.3432
19.0204	68.3441
19.0204	68.3467
19.0204	68.3484
19.0204	68.3493
19.0204	68.3527
19.0204	68.3536
19.0204	68.3545
19.0204	68.3562
19.0213	68.331
19.0213	68.3345
19.0213	68.3371
19.0213	68.3389
19.0213	68.3397
19.0213	68.3406
19.0213	68.3467
19.0213	68.3475
19.0213	68.3493
19.0213	68.3527
19.0213	68.3562
19.0222	68.3284
19.0222	68.3336
19.0222	68.3345
19.0222	68.3354
19.0222	68.3371
19.0222	68.3389
19.0222	68.3397
19.0222	68.3406
19.0222	68.3458
19.0222	68.3519
19.0222	68.3527
19.0222	68.3614
19.0222	68.3631
19.023	68.325
19.023	68.3284
19.023	68.3319
19.023	68.3336
19.023	68.3345
19.023	68.3354
19.023	68.3363
19.023	68.3406
19.023	68.3449
19.023	68.3458
19.023	68.3467
19.023	68.3501
19.023	68.3519
19.023	68.3527
19.023	68.3614
19.0239	68.325
19.0239	68.331
19.0239	68.3319
19.0239	68.3336
19.0239	68.338
19.0239	68.3415
19.0239	68.3441
19.0239	68.3458
19.0239	68.3467
19.0239	68.3484
19.0239	68.3493
19.0239	68.3501
19.0239	68.351
19.0239	68.3527
19.0239	68.3545
19.0239	68.3562
19.0239	68.3623
19.0239	68.364
19.0248	68.3336
19.0248	68.338
19.0248	68.3423
19.0248	68.3432
19.0248	68.3441
19.0248	68.3493
19.0248	68.3501
19.0248	68.351
19.0248	68.3553
19.0248	68.3562
19.0248	68.3597
19.0248	68.3631
19.0248	68.364
19.0256	68.325
19.0256	68.3302
19.0256	68.331
19.0256	68.3423
19.0256	68.3432
19.0256	68.3467
19.0256	68.3475
19.0256	68.3493
19.0256	68.3501
19.0256	68.3519
19.0256	68.3527
19.0256	68.3536
19.0256	68.3553
19.0256	68.3562
19.0256	68.3597
19.0256	68.3631
19.0256	68.364
19.0265	68.3354
19.0265	68.3415
19.0265	68.3432
19.0265	68.3441
19.0265	68.3467
19.0265	68.3475
19.0265	68.3484
19.0265	68.3493
19.0265	68.3501
19.0265	68.3527
19.0265	68.3536
19.0265	68.3553
19.0265	68.3623
19.0265	68.364
19.0274	68.3267
19.0274	68.3293
19.0274	68.3432
19.0274	68.3475
19.0274	68.3484
19.0274	68.3493
19.0274	68.351
19.0274	68.3527
19.0274	68.3553
19.0274	68.3597
19.0274	68.3605
19.0274	68.364
19.0282	68.3267
19.0282	68.3276
19.0282	68.3293
19.0282	68.3319
19.0282	68.3328
19.0282	68.3432
19.0282	68.3449
19.0282	68.3458
19.0282	68.3467
19.0282	68.3484
19.0282	68.3493
19.0282	68.351
19.0282	68.3519
19.0282	68.3527
19.0282	68.3553
19.0282	68.3588
19.0282	68.3597
19.0282	68.3623
19.0291	68.3267
19.0291	68.3276
19.0291	68.3328
19.0291	68.3449
19.0291	68.3484
19.0291	68.3536
19.0291	68.3553
19.0291	68.3579
19.0291	68.3588
19.0291	68.3605
19.0291	68.3623
19.0291	68.3631
19.03	68.3276
19.03	68.3284
19.03	68.3328
19.03	68.3406
19.03	68.3423
19.03	68.3449
19.03	68.3501
19.03	68.3519
19.03	68.3536
19.03	68.3545
19.03	68.3553
19.03	68.3571
19.03	68.3588
19.03	68.3605
19.03	68.3614
19.0308	68.3267
19.0308	68.3276
19.0308	68.3284
19.0308	68.3336
19.0308	68.3354
19.0308	68.3406
19.0308	68.3415
19.0308	68.3449
19.0308	68.3458
19.0308	68.3475
19.0308	68.3501
19.0308	68.3519
19.0308	68.3536
19.0308	68.3545
19.0308	68.3562
19.0308	68.3571
19.0308	68.3588
19.0308	68.3605
19.0308	68.3614
19.0317	68.3267
19.0317	68.3276
19.0317	68.3284
19.0317	68.3354
19.0317	68.3363
19.0317	68.3415
19.0317	68.3441
19.0317	68.3467
19.0317	68.3475
19.0317	68.3501
19.0317	68.351
19.0317	68.3519
19.0317	68.3527
19.0317	68.3562
19.0317	68.3579
19.0317	68.3614
19.0326	68.3267
19.0326	68.3345
19.0326	68.3354
19.0326	68.3363
19.0326	68.3415
19.0326	68.3449
19.0326	68.3467
19.0326	68.3475
19.0326	68.3493
19.0326	68.351
19.0326	68.3562
19.0326	68.3614
19.0326	68.3631
19.0334	68.3258
19.0334	68.3293
19.0334	68.3397
19.0334	68.3423
19.0334	68.3449
19.0334	68.3493
19.0334	68.3562
19.0334	68.3571
19.0334	68.3614
19.0343	68.325
19.0343	68.3293
19.0343	68.3345
19.0343	68.3371
19.0343	68.338
19.0343	68.3423
19.0343	68.3493
19.0343	68.3519
19.0343	68.3536
19.0343	68.3545
19.0343	68.3562
19.0343	68.3571
19.0343	68.3597
19.0343	68.3614
19.0352	68.3232
19.0352	68.3241
19.0352	68.3345
19.0352	68.3371
19.0352	68.338
19.0352	68.351
19.0352	68.3519
19.0352	68.3527
19.0352	68.3545
19.0352	68.3562
19.0352	68.3571
19.0352	68.3597
19.0352	68.3605
19.0352	68.3614
19.0352	68.3631
19.036	68.3232
19.036	68.3371
19.036	68.338
19.036	68.3432
19.036	68.3441
19.036	68.3501
19.036	68.3519
19.036	68.3527
19.036	68.3553
19.036	68.3562
19.036	68.3571
19.036	68.3597
19.036	68.3605
19.036	68.3614
19.0369	68.325
19.0369	68.3328
19.0369	68.3371
19.0369	68.3389
19.0369	68.3432
19.0369	68.3441
19.0369	68.3484
19.0369	68.3493
19.0369	68.3501
19.0369	68.3519
19.0369	68.3527
19.0369	68.3553
19.0369	68.3562
19.0369	68.3571
19.0369	68.3597
19.0369	68.3605
19.0369	68.3623
19.0378	68.3267
19.0378	68.3336
19.0378	68.338
19.0378	68.3484
19.0378	68.3493
19.0378	68.3501
19.0378	68.351
19.0378	68.3527
19.0378	68.3553
19.0378	68.3562
19.0378	68.3597
19.0378	68.3605
19.0378	68.3623
19.0386	68.3267
19.0386	68.3336
19.0386	68.3363
19.0386	68.3389
19.0386	68.3441
19.0386	68.3484
19.0386	68.351
19.0386	68.3527
19.0386	68.3562
19.0386	68.3571
19.0386	68.3579
19.0386	68.3588
19.0386	68.3597
19.0386	68.3605
19.0386	68.3623
19.0395	68.3258
19.0395	68.3267
19.0395	68.3276
19.0395	68.3284
19.0395	68.3336
19.0395	68.3371
19.0395	68.3389
19.0395	68.3441
19.0395	68.3467
19.0395	68.3475
19.0395	68.3484
19.0395	68.3493
19.0395	68.3501
19.0395	68.351
19.0395	68.3562
19.0395	68.3571
19.0395	68.3579
19.0395	68.3588
19.0395	68.3597
19.0395	68.3631
19.0404	68.3241
19.0404	68.325
19.0404	68.3258
19.0404	68.3284
19.0404	68.3371
19.0404	68.3458
19.0404	68.3467
19.0404	68.3484
19.0404	68.3493
19.0404	68.3501
19.0404	68.351
19.0404	68.3562
19.0404	68.3571
19.0404	68.3588
19.0404	68.3631
19.0412	68.3258
19.0412	68.3354
19.0412	68.338
19.0412	68.3458
19.0412	68.3467
19.0412	68.3484
19.0412	68.351
19.0412	68.3579
19.0412	68.3631
19.0412	68.364
19.0421	68.3293
19.0421	68.3406
19.0421	68.3423
19.0421	68.3432
19.0421	68.3458
19.0421	68.3501
19.0421	68.351
19.0421	68.3536
19.0421	68.3545
19.043	68.3293
19.043	68.331
19.043	68.3432
19.043	68.3458
19.043	68.3493
19.043	68.3501
19.043	68.351
19.043	68.3519
19.043	68.3527
19.043	68.3553
19.043	68.3562
19.043	68.3588
19.043	68.3631
19.0438	68.3293
19.0438	68.3302
19.0438	68.3319
19.0438	68.3328
19.0438	68.3397
19.0438	68.3406
19.0438	68.3432
19.0438	68.3441
19.0438	68.3458
19.0438	68.3467
19.0438	68.3475
19.0438	68.3493
19.0438	68.3501
19.0438	68.3527
19.0438	68.3536
19.0438	68.3553
19.0438	68.3562
19.0438	68.3579
19.0438	68.3588
19.0438	68.3631
19.0447	68.3293
19.0447	68.3302
19.0447	68.3328
19.0447	68.3397
19.0447	68.3406
19.0447	68.3432
19.0447	68.3458
19.0447	68.3467
19.0447	68.3475
19.0447	68.3484
19.0447	68.3527
19.0447	68.3536
19.0447	68.3553
19.0447	68.3562
19.0447	68.3571
19.0447	68.3579
19.0447	68.3623
19.0447	68.364
19.0456	68.3432
19.0456	68.3458
19.0456	68.3484
19.0456	68.3536
19.0456	68.3562
19.0456	68.3597
19.0456	68.3631
19.0464	68.3406
19.0464	68.3432
19.0464	68.3449
19.0464	68.3467
19.0464	68.3484
19.0464	68.3519
19.0464	68.3527
19.0464	68.3536
19.0464	68.3545
19.0464	68.3562
19.0464	68.3597
19.0464	68.3631
19.0473	68.3302
19.0473	68.3319
19.0473	68.3371
19.0473	68.3397
19.0473	68.3406
19.0473	68.3423
19.0473	68.3441
19.0473	68.3467
19.0473	68.3484
19.0473	68.3493
19.0473	68.3501
19.0473	68.3536
19.0473	68.3545
19.0473	68.3571
19.0473	68.3588
19.0473	68.3631
19.0482	68.331
19.0482	68.3319
19.0482	68.338
19.0482	68.3397
19.0482	68.3415
19.0482	68.3449
19.0482	68.3467
19.0482	68.3484
19.0482	68.3493
19.0482	68.351
19.0482	68.3536
19.0482	68.3545
19.0482	68.3553
19.0482	68.3562
19.0482	68.3571
19.0482	68.3588
19.0482	68.3631
19.049	68.331
19.049	68.3319
19.049	68.3336
19.049	68.338
19.049	68.3449
19.049	68.351
19.049	68.3519
19.049	68.3527
19.049	68.3545
19.049	68.3553
19.049	68.3562
19.049	68.3571
19.049	68.3623
19.0499	68.3328
19.0499	68.3406
19.0499	68.3475
19.0499	68.351
19.0499	68.3519
19.0499	68.3527
19.0499	68.3536
19.0499	68.3553
19.0499	68.3562
19.0499	68.3571
19.0499	68.3579
19.0499	68.3588
19.0499	68.3605
19.0499	68.3623
19.0499	68.364
19.0508	68.331
19.0508	68.3328
19.0508	68.3354
19.0508	68.3389
19.0508	68.3406
19.0508	68.3432
19.0508	68.3441
19.0508	68.3475
19.0508	68.3484
19.0508	68.3536
19.0508	68.3553
19.0508	68.3571
19.0508	68.3605
19.0508	68.364
19.0516	68.331
19.0516	68.3354
19.0516	68.3389
19.0516	68.3441
19.0516	68.3484
19.0516	68.3536
19.0516	68.3571
19.0516	68.3614
19.0525	68.331
19.0525	68.3345
19.0525	68.3354
19.0525	68.3397
19.0525	68.3441
19.0525	68.3467
19.0525	68.3475
19.0525	68.3501
19.0525	68.3571
19.0525	68.3605
19.0525	68.3623
19.0534	68.3319
19.0534	68.3345
19.0534	68.3363
19.0534	68.3371
19.0534	68.3423
19.0534	68.3432
19.0534	68.3458
19.0534	68.3475
19.0534	68.3493
19.0534	68.3501
19.0534	68.351
19.0534	68.3519
19.0534	68.3571
19.0534	68.3579
19.0534	68.3597
19.0534	68.3605
19.0534	68.3623
19.0534	68.3631
19.0542	68.3319
19.0542	68.3458
19.0542	68.3493
19.0542	68.3519
19.0542	68.3545
19.0542	68.3571
19.0542	68.3579
19.0542	68.3597
19.0542	68.3605
19.0551	68.3328
19.0551	68.338
19.0551	68.3397
19.0551	68.3475
19.0551	68.3484
19.0551	68.3493
19.0551	68.3545
19.0551	68.3571
19.0551	68.3579
19.0551	68.3588
19.0551	68.3614
19.0551	68.3623
19.0551	68.3631
19.056	68.3336
19.056	68.3397
19.056	68.3406
19.056	68.3441
19.056	68.3449
19.056	68.3484
19.056	68.3493
19.056	68.3501
19.056	68.3597
19.056	68.3605
19.056	68.3614
19.056	68.3623
19.056	68.3631
19.0568	68.3397
19.0568	68.3406
19.0568	68.3449
19.0568	68.3501
19.0568	68.3597
19.0568	68.3605
19.0568	68.3614
19.0568	68.3623
19.0577	68.3389
19.0577	68.3423
19.0577	68.3432
19.0577	68.3449
19.0577	68.3467
19.0577	68.3484
19.0577	68.3571
19.0577	68.3623
19.0586	68.3423
19.0586	68.3432
19.0586	68.3441
19.0586	68.351
19.0586	68.3519
19.0586	68.3536
19.0586	68.3571
19.0586	68.3588
19.0586	68.3605
19.0586	68.3623
19.0594	68.3493
19.0594	68.3519
19.0594	68.3536
19.0594	68.3588
19.0594	68.3605
19.0594	68.3623
19.0603	68.3467
19.0603	68.3493
19.0603	68.3501
19.0603	68.3519
19.0603	68.3536
19.0603	68.3553
19.0603	68.3571
19.0603	68.3588
19.0603	68.3614
19.0603	68.3623
19.0612	68.3449
19.0612	68.3467
19.0612	68.3475
19.0612	68.3484
19.0612	68.3493
19.0612	68.3501
19.0612	68.3527
19.0612	68.3562
19.0612	68.3571
19.0612	68.3605
19.0612	68.3623
19.062	68.3449
19.062	68.3475
19.062	68.3484
19.062	68.3493
19.062	68.351
19.062	68.3519
19.062	68.3527
19.062	68.3562
19.062	68.3605
19.062	68.3623
19.0629	68.3415
19.0629	68.3432
19.0629	68.3441
19.0629	68.3449
19.0629	68.3475
19.0629	68.3484
19.0629	68.3493
19.0629	68.3501
19.0629	68.351
19.0629	68.3519
19.0629	68.3527
19.0629	68.3553
19.0629	68.3588
19.0629	68.3605
19.0629	68.3623
19.0638	68.3441
19.0638	68.3449
19.0638	68.3458
19.0638	68.3467
19.0638	68.3501
19.0638	68.351
19.0638	68.3519
19.0638	68.3536
19.0638	68.3545
19.0638	68.3553
19.0638	68.3562
19.0638	68.3597
19.0638	68.3605
19.0638	68.3614
19.0646	68.3449
19.0646	68.3458
19.0646	68.3475
19.0646	68.3501
19.0646	68.3545
19.0646	68.3553
19.0646	68.3562
19.0646	68.3588
19.0646	68.3614
19.0655	68.3423
19.0655	68.3458
19.0655	68.3475
19.0655	68.3484
19.0655	68.3519
19.0655	68.3527
19.0655	68.3545
19.0655	68.3571
19.0655	68.3579
19.0655	68.3588
19.0655	68.3597
19.0655	68.3614
19.0664	68.3467
19.0664	68.3475
19.0664	68.3501
19.0664	68.3519
19.0664	68.3527
19.0664	68.3588
19.0664	68.3597
19.0664	68.3614
19.0672	68.3501
19.0672	68.3519
19.0672	68.3527
19.0672	68.3545
19.0672	68.3588
19.0672	68.3597
19.0681	68.3501
19.0681	68.3519
19.0681	68.3527
19.0681	68.3545
19.0681	68.3571
19.0681	68.3579
19.0681	68.3588
19.0681	68.3605
19.069	68.3493
19.069	68.3501
19.069	68.351
19.069	68.3527
19.069	68.3579
19.069	68.3588
19.069	68.3605
19.069	68.3614
19.0698	68.351
19.0698	68.3527
19.0698	68.3536
19.0698	68.3579
19.0698	68.3588
19.0698	68.3614
19.0707	68.3545
19.0707	68.3605
19.0707	68.3614
19.0716	68.351
19.0716	68.3527
19.0716	68.3545
19.0716	68.3562
19.0716	68.3579
19.0716	68.3597
19.0716	68.3605
19.0716	68.3614
19.0724	68.3527
19.0724	68.3571
19.0724	68.3579
19.0724	68.3597
19.0724	68.3605
19.0733	68.3519
19.0733	68.3545
19.0733	68.3571
19.0742	68.3562
19.0742	68.3571
19.0759	68.3553
19.0759	68.3562
19.0768	68.3545
19.0768	68.3553
18.9649	68.3415
18.9649	68.3467
18.9658	68.3415
18.9658	68.3432
18.9658	68.3493
18.9658	68.3501
18.9667	68.3406
18.9667	68.3423
18.9667	68.3449
18.9675	68.3449
18.9675	68.3458
18.9693	68.3423
18.9693	68.3432
18.9701	68.3415
18.9701	68.3423
18.971	68.3345
18.971	68.3423
18.9719	68.3345
18.9727	68.3336
18.9727	68.3406
18.9727	68.3423
18.9736	68.3336
18.9736	68.3397
18.9736	68.3423
18.9736	68.3475
18.9745	68.3302
18.9745	68.3336
18.9745	68.3363
18.9745	68.3371
18.9745	68.3423
18.9753	68.3336
18.9753	68.3501
18.9762	68.3328
18.9762	68.3415
18.9762	68.3467
18.9762	68.3501
18.9771	68.3415
18.9771	68.3475
18.9771	68.3484
18.9771	68.3501
18.9771	68.3519
18.9779	68.3354
18.9779	68.3415
18.9779	68.3475
18.9779	68.3484
18.9788	68.3475
18.9797	68.3267
18.9797	68.3458
18.9797	68.3493
18.9797	68.3527
18.9805	68.3267
18.9805	68.3363
18.9805	68.338
18.9805	68.3432
18.9805	68.3467
18.9805	68.3493
18.9814	68.3336
18.9814	68.3406
18.9814	68.3467
18.9814	68.3484
18.9814	68.3493
18.9814	68.3519
18.9823	68.3397
18.9823	68.3415
18.9823	68.3519
18.9831	68.3258
18.9831	68.3389
18.9831	68.3415
18.9831	68.3536
18.9831	68.3545
18.984	68.3258
18.984	68.3484
18.984	68.3501
18.984	68.351
18.984	68.3536
18.984	68.3545
18.9849	68.3258
18.9849	68.3302
18.9849	68.3406
18.9849	68.3441
18.9849	68.3501
18.9849	68.3545
18.9857	68.3258
18.9857	68.3302
18.9857	68.3441
18.9857	68.3449
18.9857	68.3475
18.9857	68.3501
18.9857	68.3519
18.9857	68.3545
18.9866	68.3258
18.9866	68.3371
18.9866	68.3389
18.9866	68.3475
18.9866	68.3545
18.9875	68.3258
18.9875	68.3284
18.9875	68.3319
18.9875	68.3371
18.9875	68.3389
18.9875	68.3432
18.9875	68.3441
18.9883	68.3258
18.9883	68.3276
18.9883	68.3336
18.9883	68.3371
18.9883	68.3441
18.9883	68.3475
18.9883	68.3536
18.9892	68.3258
18.9892	68.3467
18.9892	68.3536
18.9901	68.331
18.9901	68.3467
18.9901	68.3527
18.9901	68.3536
18.9909	68.3267
18.9909	68.331
18.9909	68.3354
18.9909	68.3527
18.9909	68.3553
18.9918	68.3493
18.9918	68.3519
18.9927	68.3241
18.9927	68.3293
18.9927	68.3501
18.9936	68.3501
18.9936	68.3553
18.9936	68.3562
18.9944	68.3276
18.9944	68.3328
18.9944	68.3467
18.9944	68.3475
18.9944	68.3501
18.9953	68.3319
18.9953	68.3441
18.9953	68.3467
18.9953	68.3475
18.9953	68.3501
18.9962	68.3224
18.9962	68.3371
18.9962	68.3389
18.9962	68.3475
18.9962	68.3527
18.997	68.3345
18.997	68.3389
18.997	68.3527
18.9979	68.3258
18.9979	68.3389
18.9979	68.3397
18.9979	68.3553
18.9988	68.3224
18.9988	68.3232
18.9988	68.3432
18.9988	68.3441
18.9988	68.3475
18.9988	68.351
18.9988	68.3553
18.9996	68.3232
18.9996	68.3475
19.0005	68.3206
19.0005	68.3232
19.0005	68.3293
19.0005	68.3354
19.0005	68.3475
19.0005	68.3501
19.0014	68.3258
19.0014	68.3293
19.0014	68.3354
19.0014	68.3501
19.0022	68.3258
19.0022	68.3293
19.0031	68.3198
19.0031	68.3232
19.0031	68.3328
19.0031	68.3406
19.004	68.3206
19.004	68.3232
19.004	68.3241
19.004	68.3397
19.004	68.3415
19.0048	68.3198
19.0048	68.3206
19.0048	68.325
19.0048	68.3302
19.0048	68.338
19.0048	68.3415
19.0048	68.3527
19.0048	68.3553
19.0057	68.3224
19.0057	68.325
19.0057	68.3276
19.0057	68.3293
19.0057	68.3371
19.0057	68.3527
19.0066	68.3354
19.0066	68.3371
19.0074	68.3232
19.0074	68.3302
19.0074	68.331
19.0074	68.3354
19.0074	68.3389
19.0074	68.3397
19.0074	68.3449
19.0074	68.3545
19.0083	68.3206
19.0083	68.3241
19.0083	68.3302
19.0083	68.3371
19.0083	68.3397
19.0083	68.3432
19.0083	68.3501
19.0083	68.3545
19.0092	68.3224
19.0092	68.3241
19.0092	68.3258
19.0092	68.3536
19.0092	68.3545
19.01	68.3224
19.01	68.3241
19.01	68.325
19.01	68.3267
19.01	68.3475
19.0109	68.3224
19.0109	68.325
19.0109	68.3267
19.0109	68.3328
19.0109	68.3363
19.0109	68.3389
19.0109	68.3432
19.0109	68.3527
19.0118	68.325
19.0118	68.3267
19.0118	68.3284
19.0118	68.3328
19.0118	68.338
19.0118	68.3389
19.0118	68.351
19.0118	68.3527
19.0118	68.3545
19.0126	68.3189
19.0126	68.3198
19.0126	68.3284
19.0126	68.3293
19.0126	68.3319
19.0126	68.3345
19.0126	68.338
19.0126	68.3458
19.0126	68.351
19.0126	68.3527
19.0126	68.3536
19.0126	68.3553
19.0135	68.3198
19.0135	68.3232
19.0135	68.325
19.0135	68.3284
19.0135	68.3293
19.0135	68.3302
19.0135	68.3345
19.0135	68.3449
19.0135	68.3467
19.0135	68.3545
19.0135	68.3553
19.0144	68.3198
19.0144	68.3258
19.0144	68.3354
19.0144	68.3467
19.0144	68.3545
19.0152	68.3206
19.0152	68.3258
19.0152	68.3267
19.0152	68.3336
19.0152	68.3371
19.0152	68.3432
19.0152	68.3536
19.0161	68.3241
19.0161	68.3258
19.0161	68.331
19.0161	68.3371
19.0161	68.3406
19.0161	68.3423
19.0161	68.3432
19.0161	68.3449
19.0161	68.3553
19.017	68.325
19.017	68.3276
19.017	68.331
19.017	68.3406
19.017	68.3423
19.017	68.3519
19.017	68.3553
19.0178	68.3206
19.0178	68.3232
19.0178	68.325
19.0178	68.3284
19.0178	68.3293
19.0178	68.3302
19.0178	68.3371
19.0187	68.3232
19.0187	68.3293
19.0187	68.3302
19.0187	68.3371
19.0187	68.3423
19.0187	68.3432
19.0187	68.3475
19.0196	68.3258
19.0196	68.3267
19.0196	68.3293
19.0196	68.3423
19.0196	68.3432
19.0196	68.3441
19.0196	68.3449
19.0204	68.325
19.0204	68.3258
19.0204	68.3267
19.0204	68.3319
19.0204	68.3415
19.0213	68.325
19.0213	68.3319
19.0213	68.3336
19.0213	68.3354
19.0213	68.3553
19.0222	68.325
19.0222	68.331
19.0222	68.3432
19.0222	68.3441
19.0222	68.3493
19.0222	68.3623
19.023	68.3241
19.023	68.3258
19.023	68.338
19.023	68.3493
19.023	68.3536
19.023	68.3623
19.0239	68.3258
19.0239	68.3267
19.0239	68.3406
19.0239	68.3449
19.0239	68.3519
19.0239	68.3536
19.0239	68.3553
19.0248	68.325
19.0248	68.3258
19.0248	68.3267
19.0248	68.331
19.0248	68.3406
19.0248	68.3449
19.0248	68.3458
19.0248	68.3519
19.0248	68.3527
19.0248	68.3536
19.0256	68.3267
19.0256	68.3406
19.0256	68.3441
19.0265	68.3267
19.0265	68.3345
19.0265	68.3363
19.0265	68.338
19.0265	68.3406
19.0274	68.3276
19.0274	68.338
19.0274	68.3397
19.0274	68.3406
19.0274	68.3441
19.0274	68.3623
19.0282	68.3336
19.0282	68.3441
19.0282	68.3614
19.0291	68.3284
19.0291	68.3493
19.0291	68.3501
19.0291	68.3519
19.0291	68.3527
19.0291	68.3614
19.03	68.3267
19.03	68.3293
19.03	68.3336
19.03	68.3475
19.03	68.3484
19.03	68.3527
19.03	68.3579
19.0308	68.3293
19.0308	68.3328
19.0308	68.3345
19.0308	68.3484
19.0308	68.3579
19.0308	68.3623
19.0317	68.3293
19.0317	68.3319
19.0317	68.3336
19.0317	68.3345
19.0317	68.3371
19.0317	68.3432
19.0317	68.3484
19.0317	68.3571
19.0317	68.3605
19.0317	68.3623
19.0326	68.3276
19.0326	68.3284
19.0326	68.3336
19.0326	68.3371
19.0326	68.338
19.0326	68.3519
19.0326	68.3527
19.0326	68.3605
19.0334	68.3363
19.0334	68.3371
19.0334	68.338
19.0334	68.3406
19.0334	68.3467
19.0334	68.3527
19.0334	68.3545
19.0334	68.3605
19.0343	68.3267
19.0343	68.3363
19.0343	68.3389
19.0343	68.3467
19.0343	68.3501
19.0352	68.325
19.0352	68.3258
19.0352	68.3302
19.0352	68.3354
19.0352	68.3363
19.0352	68.3423
19.0352	68.3449
19.0352	68.3493
19.036	68.325
19.036	68.3258
19.036	68.3449
19.036	68.3631
19.0369	68.3267
19.0369	68.3449
19.0369	68.3536
19.0369	68.3631
19.0378	68.3258
19.0378	68.3467
19.0378	68.3519
19.0378	68.3579
19.0378	68.3614
19.0378	68.3631
19.0386	68.3241
19.0386	68.3258
19.0386	68.3276
19.0386	68.3284
19.0386	68.3345
19.0386	68.3467
19.0386	68.3553
19.0386	68.3614
19.0386	68.3631
19.0395	68.3241
19.0395	68.3293
19.0395	68.3354
19.0395	68.3605
19.0404	68.3293
19.0404	68.3354
19.0404	68.3441
19.0404	68.3527
19.0404	68.3597
19.0412	68.3293
19.0412	68.3302
19.0412	68.3319
19.0412	68.3371
19.0412	68.3397
19.0412	68.3432
19.0412	68.3519
19.0421	68.331
19.0421	68.3319
19.0421	68.3397
19.0421	68.3493
19.0421	68.3519
19.0421	68.3562
19.0421	68.3571
19.0421	68.364
19.043	68.3354
19.043	68.3467
19.043	68.3484
19.043	68.3571
19.043	68.364
19.0438	68.331
19.0438	68.3336
19.0438	68.3354
19.0438	68.3484
19.0447	68.3336
19.0447	68.338
19.0447	68.3449
19.0447	68.351
19.0447	68.3631
19.0456	68.3328
19.0456	68.338
19.0456	68.3449
19.0456	68.3501
19.0456	68.351
19.0464	68.331
19.0464	68.3415
19.0464	68.3501
19.0464	68.351
19.0464	68.3553
19.0473	68.3363
19.0473	68.3415
19.0473	68.3527
19.0473	68.3553
19.0473	68.3623
19.0482	68.3441
19.0482	68.3501
19.0482	68.3527
19.0482	68.3623
19.049	68.3441
19.049	68.3501
19.049	68.3536
19.049	68.3631
19.0499	68.3449
19.0499	68.3458
19.0499	68.3614
19.0499	68.3631
19.0508	68.3415
19.0508	68.3449
19.0508	68.3493
19.0508	68.3527
19.0508	68.3579
19.0516	68.3363
19.0516	68.3449
19.0516	68.3467
19.0516	68.3527
19.0516	68.3579
19.0525	68.3336
19.0525	68.3363
19.0525	68.338
19.0525	68.3588
19.0525	68.3597
19.0525	68.3614
19.0534	68.3336
19.0534	68.3449
19.0534	68.3467
19.0534	68.3614
19.0542	68.3336
19.0542	68.3345
19.0542	68.3371
19.0542	68.3406
19.0542	68.3441
19.0542	68.3449
19.0542	68.3467
19.0542	68.351
19.0542	68.3553
19.0542	68.3623
19.0542	68.3631
19.0551	68.3336
19.0551	68.3371
19.0551	68.3415
19.0551	68.3441
19.0551	68.3458
19.0551	68.351
19.056	68.3415
19.0568	68.3484
19.0568	68.3519
19.0568	68.3588
19.0577	68.3493
19.0577	68.3519
19.0577	68.3588
19.0586	68.3397
19.0586	68.3458
19.0586	68.3493
19.0586	68.3545
19.0586	68.3614
19.0594	68.3397
19.0594	68.351
19.0594	68.3527
19.0594	68.3545
19.0594	68.3597
19.0594	68.3614
19.0603	68.3406
19.0603	68.3415
19.0603	68.3432
19.0603	68.3527
19.0603	68.3562
19.0603	68.3597
19.0612	68.3415
19.0612	68.3432
19.0612	68.3536
19.0612	68.3553
19.0612	68.3597
19.062	68.3415
19.062	68.3536
19.062	68.3553
19.0629	68.3536
19.0629	68.3579
19.0638	68.3423
19.0638	68.3493
19.0638	68.3527
19.0646	68.3423
19.0646	68.3441
19.0646	68.3493
19.0646	68.3519
19.0646	68.3597
19.0664	68.3571
19.0664	68.3579
19.0672	68.3475
19.0672	68.3571
19.0672	68.3579
19.0681	68.3493
19.0698	68.3545
19.0707	68.3527
19.0707	68.3536
19.0707	68.3571
19.0707	68.3579
19.0707	68.3588
19.0707	68.3597
19.0716	68.3536
19.0716	68.3571
19.0724	68.3545
19.075	68.3553
19.0759	68.3545
18.9641	68.3475
18.9658	68.3467
18.9667	68.3467
18.9675	68.3415
18.9684	68.3415
18.971	68.3458
18.9727	68.3371
18.9736	68.3354
18.9736	68.3371
18.9736	68.3493
18.9745	68.3354
18.9745	68.3493
18.9762	68.3363
18.9762	68.3389
18.9762	68.3484
18.9771	68.3363
18.9771	68.3389
18.9779	68.3363
18.9788	68.3363
18.9797	68.3363
18.9797	68.3475
18.9805	68.3475
18.9814	68.3423
18.9823	68.3258
18.9831	68.3336
18.984	68.331
18.984	68.3336
18.984	68.3363
18.984	68.3389
18.9849	68.331
18.9849	68.3336
18.9849	68.3363
18.9849	68.3389
18.9849	68.3467
18.9857	68.3363
18.9857	68.3415
18.9866	68.3293
18.9866	68.3319
18.9866	68.3415
18.9866	68.3432
18.9866	68.3536
18.9875	68.3276
18.9875	68.3536
18.9883	68.3267
18.9892	68.331
18.9901	68.3423
18.9909	68.3293
18.9909	68.3328
18.9918	68.3293
18.9918	68.3354
18.9918	68.3475
18.9927	68.3302
18.9927	68.3354
18.9927	68.3484
18.9936	68.3276
18.9936	68.3319
18.9936	68.3363
18.9944	68.3319
18.9944	68.3354
18.9944	68.3363
18.9953	68.3345
18.9953	68.3354
18.9953	68.3363
18.9953	68.3389
18.9962	68.3258
18.9962	68.3302
18.9962	68.3345
18.9962	68.3397
18.997	68.3258
18.997	68.3293
18.997	68.3397
18.997	68.3406
18.9979	68.3215
18.9979	68.3293
18.9979	68.3467
18.9988	68.3215
18.9988	68.325
18.9988	68.3501
18.9988	68.3519
18.9996	68.325
18.9996	68.3354
18.9996	68.3397
19.0014	68.3371
19.0014	68.3467
19.0014	68.3484
19.0022	68.3241
19.0022	68.3302
19.0022	68.338
19.0022	68.3467
19.0022	68.3484
19.0031	68.3241
19.0031	68.3258
19.0031	68.3371
19.0031	68.338
19.0031	68.3397
19.0031	68.3432
19.0031	68.3441
19.004	68.3276
19.004	68.331
19.004	68.3345
19.004	68.3371
19.004	68.3432
19.004	68.3441
19.004	68.3527
19.0048	68.3276
19.0048	68.3345
19.0048	68.3536
19.0057	68.3241
19.0057	68.3302
19.0057	68.331
19.0057	68.3415
19.0057	68.3501
19.0057	68.3536
19.0057	68.3553
19.0066	68.3241
19.0066	68.3302
19.0066	68.3319
19.0066	68.3406
19.0066	68.3432
19.0074	68.3258
19.0074	68.3371
19.0074	68.3432
19.0083	68.325
19.0083	68.3258
19.0083	68.3319
19.0092	68.325
19.0092	68.3319
19.0092	68.3328
19.0092	68.3345
19.0092	68.3397
19.0092	68.3423
19.01	68.3206
19.01	68.3284
19.01	68.3397
19.01	68.3423
19.01	68.3545
19.0109	68.3206
19.0109	68.3284
19.0109	68.3545
19.0118	68.3241
19.0126	68.3206
19.0135	68.3432
19.0135	68.3536
19.0144	68.3293
19.0144	68.3319
19.0144	68.338
19.0144	68.3536
19.0144	68.3553
19.0152	68.3215
19.0152	68.3276
19.0152	68.3319
19.0152	68.338
19.0152	68.3415
19.0152	68.3475
19.0152	68.3519
19.0161	68.325
19.0161	68.3536
19.017	68.3232
19.017	68.3293
19.017	68.3371
19.017	68.3449
19.0178	68.3276
19.0178	68.3484
19.0178	68.3493
19.0187	68.3258
19.0187	68.3284
19.0187	68.3319
19.0196	68.3284
19.0196	68.3336
19.0196	68.338
19.0196	68.3389
19.0196	68.3475
19.0196	68.3519
19.0204	68.3302
19.0204	68.3336
19.0204	68.3354
19.0204	68.3423
19.0204	68.3475
19.0204	68.3519
19.0213	68.3328
19.0213	68.3415
19.0213	68.3519
19.0213	68.3536
19.0222	68.3319
19.0222	68.3415
19.023	68.3293
19.023	68.3415
19.0239	68.3631
19.0248	68.3276
19.0248	68.3345
19.0248	68.3545
19.0256	68.3276
19.0256	68.3319
19.0256	68.3345
19.0256	68.3449
19.0256	68.3458
19.0265	68.3276
19.0265	68.3284
19.0265	68.3631
19.0274	68.3284
19.0274	68.3302
19.0274	68.3631
19.0282	68.3284
19.0282	68.3302
19.0282	68.3397
19.0282	68.3631
19.0291	68.3336
19.0291	68.3441
19.03	68.3363
19.0308	68.3363
19.0317	68.338
19.0317	68.3545
19.0326	68.3293
19.0326	68.3432
19.0326	68.3545
19.0334	68.3267
19.0334	68.3284
19.0334	68.3345
19.0334	68.3354
19.0334	68.3631
19.0343	68.3258
19.0343	68.3284
19.0343	68.3302
19.0343	68.3354
19.0343	68.3605
19.0343	68.3631
19.0352	68.3284
19.0352	68.3389
19.036	68.3389
19.0369	68.3614
19.0378	68.325
19.0378	68.3371
19.0378	68.3588
19.0386	68.325
19.0386	68.338
19.0395	68.325
19.0395	68.3302
19.0395	68.3345
19.0395	68.338
19.0395	68.3397
19.0395	68.3553
19.0395	68.3614
19.0395	68.3623
19.0404	68.3302
19.0404	68.3432
19.0404	68.3536
19.0412	68.3389
19.0412	68.3536
19.0421	68.3302
19.0421	68.3389
19.0421	68.3441
19.043	68.3302
19.043	68.3415
19.043	68.3441
19.0438	68.3415
19.0447	68.331
19.0447	68.3493
19.0456	68.331
19.0456	68.3336
19.0456	68.3371
19.0456	68.3571
19.0456	68.3579
19.0464	68.3371
19.0464	68.3389
19.0464	68.3475
19.0464	68.3571
19.0473	68.3328
19.0473	68.3458
19.0473	68.3475
19.0473	68.351
19.0482	68.3328
19.0482	68.3345
19.0482	68.3423
19.0482	68.3458
19.049	68.3475
19.049	68.3588
19.0499	68.331
19.0499	68.3363
19.0499	68.3545
19.0508	68.3319
19.0508	68.3371
19.0508	68.338
19.0508	68.3545
19.0516	68.3319
19.0516	68.3371
19.0516	68.338
19.0516	68.3501
19.0516	68.3545
19.0516	68.3631
19.0525	68.3449
19.0525	68.3527
19.0525	68.3579
19.0525	68.3631
19.0534	68.3328
19.0534	68.3354
19.0534	68.3389
19.0542	68.3328
19.0542	68.3389
19.0542	68.3614
19.0551	68.3389
19.0551	68.3423
19.0551	68.3553
19.0551	68.3597
19.056	68.3389
19.056	68.3423
19.056	68.3458
19.056	68.3553
19.0568	68.3389
19.0568	68.3415
19.0568	68.3432
19.0568	68.3458
19.0577	68.3458
19.0586	68.3527
19.0586	68.3553
19.0594	68.3501
19.0594	68.3553
19.0603	68.351
19.0612	68.3458
19.0612	68.351
19.0612	68.3614
19.062	68.3441
19.062	68.3501
19.062	68.3614
19.0629	68.3423
19.0638	68.3588
19.0646	68.351
19.0646	68.3605
19.0655	68.3432
19.0655	68.3605
19.0664	68.3484
19.0664	68.3623
19.0672	68.3536
19.0681	68.3536
19.069	68.3536
19.0698	68.3562
19.0707	68.3562
19.0716	68.3519
19.0716	68.3588
19.0724	68.351
19.0724	68.3519
19.0724	68.3588
19.075	68.3545
19.075	68.3562
18.9667	68.3432
18.9675	68.3432
18.9675	68.3467
18.9675	68.3484
18.9684	68.338
18.9684	68.3484
18.9745	68.3519
18.9753	68.3371
18.9762	68.3354
18.9762	68.3493
18.9771	68.3354
18.9771	68.3493
18.9779	68.3284
18.9779	68.3389
18.9788	68.3389
18.9788	68.3415
18.9805	68.351
18.9814	68.338
18.9823	68.3267
18.9823	68.3328
18.9823	68.338
18.9823	68.3484
18.9831	68.3267
18.9831	68.3449
18.9831	68.3484
18.9831	68.3527
18.984	68.3267
18.984	68.3449
18.9849	68.3267
18.9849	68.3293
18.9849	68.3328
18.9849	68.3449
18.9857	68.3267
18.9857	68.3284
18.9857	68.3293
18.9857	68.3345
18.9866	68.3267
18.9866	68.3284
18.9866	68.3345
18.9875	68.3267
18.9875	68.331
18.9883	68.331
18.9892	68.3336
18.9892	68.3519
18.9901	68.3336
18.9901	68.3363
18.9901	68.3519
18.9909	68.3302
18.9909	68.3519
18.9918	68.3276
18.9918	68.3302
18.9918	68.3536
18.9927	68.325
18.9927	68.3276
18.9927	68.3371
18.9927	68.3406
18.9936	68.3371
18.9936	68.3406
18.9936	68.3519
18.9944	68.3371
18.9944	68.3519
18.9953	68.3258
18.9953	68.3406
18.9953	68.3545
18.9962	68.3232
18.9962	68.3406
18.9962	68.3493
18.9962	68.3545
18.997	68.3267
18.997	68.3336
18.9979	68.325
18.9979	68.3354
18.9988	68.3267
18.9988	68.3302
18.9988	68.3354
18.9988	68.3545
18.9996	68.3267
18.9996	68.3276
18.9996	68.3545
19.0005	68.3484
19.0014	68.3241
19.0014	68.3302
19.0014	68.331
19.0014	68.3406
19.0022	68.3389
19.0022	68.3406
19.0022	68.3527
19.0031	68.3302
19.0031	68.3389
19.0031	68.3527
19.004	68.3302
19.004	68.338
19.004	68.3519
19.004	68.3545
19.0048	68.331
19.0048	68.3328
19.0048	68.3363
19.0048	68.3545
19.0066	68.325
19.0066	68.3258
19.0066	68.331
19.0074	68.3406
19.0074	68.3441
19.0083	68.3406
19.01	68.3215
19.01	68.3328
19.01	68.3553
19.0109	68.3215
19.0109	68.3397
19.0109	68.3553
19.0118	68.3293
19.0118	68.3397
19.0135	68.331
19.0135	68.3441
19.0135	68.3458
19.0144	68.3363
19.0152	68.3232
19.0152	68.3345
19.0152	68.3493
19.0161	68.3232
19.0161	68.3267
19.0161	68.3319
19.0161	68.338
19.0161	68.3458
19.0161	68.3493
19.017	68.3319
19.0178	68.3215
19.0178	68.3319
19.0187	68.3406
19.0196	68.3345
19.0204	68.3293
19.0204	68.3345
19.0213	68.3258
19.0213	68.3363
19.0213	68.3423
19.0213	68.3441
19.0222	68.3267
19.0222	68.3363
19.0222	68.3475
19.0222	68.3536
19.023	68.3267
19.023	68.3328
19.023	68.3397
19.023	68.3475
19.023	68.3631
19.0239	68.3276
19.0239	68.3328
19.0239	68.3354
19.0239	68.3397
19.0248	68.3284
19.0248	68.3467
19.0256	68.3284
19.0265	68.3371
19.0265	68.3519
19.0274	68.3415
19.0274	68.3501
19.0274	68.3519
19.0274	68.3536
19.0274	68.3588
19.0282	68.3345
19.0282	68.3501
19.0291	68.3397
19.0291	68.3467
19.0291	68.351
19.03	68.3302
19.03	68.3345
19.03	68.3397
19.03	68.3467
19.0308	68.3302
19.0317	68.3302
19.0317	68.3458
19.0326	68.3484
19.0326	68.3579
19.0334	68.3579
19.0343	68.3449
19.0352	68.331
19.0352	68.3397
19.0352	68.3467
19.036	68.3241
19.036	68.3397
19.036	68.3415
19.036	68.3467
19.0369	68.3241
19.0369	68.3276
19.0369	68.338
19.0378	68.3276
19.0412	68.331
19.0412	68.3328
19.0412	68.3363
19.0421	68.3328
19.0421	68.3484
19.043	68.3363
19.043	68.3475
19.0438	68.3363
19.0438	68.3571
19.0447	68.3345
19.0456	68.3302
19.0456	68.3423
19.0456	68.3493
19.0464	68.3302
19.0464	68.3423
19.0464	68.3493
19.0464	68.3588
19.0473	68.3562
19.049	68.3458
19.0499	68.3389
19.0508	68.3345
19.0508	68.3423
19.0516	68.3345
19.0516	68.3432
19.0525	68.3319
19.0525	68.3415
19.0525	68.3432
19.0525	68.351
19.0525	68.3536
19.0534	68.338
19.0534	68.3397
19.0534	68.3415
19.0542	68.338
19.0542	68.3397
19.0542	68.3562
19.0551	68.3406
19.0551	68.3519
19.0577	68.3527
19.0586	68.3406
19.0594	68.3406
19.0603	68.3423
19.0603	68.3484
19.0612	68.3423
19.062	68.3423
19.062	68.3458
19.062	68.3597
19.0629	68.3597
19.0638	68.3571
19.0646	68.3571
19.0655	68.351
19.0664	68.3493
19.0664	68.3536
19.0672	68.3484
19.0672	68.3493
19.0681	68.3484
19.069	68.3562
18.9658	68.3423
18.9736	68.3389
18.9736	68.3458
18.9788	68.3441
18.9797	68.3441
18.9823	68.3319
18.9823	68.3363
18.9823	68.3536
18.9831	68.3363
18.9831	68.3371
18.984	68.3302
18.9849	68.3284
18.9857	68.3276
18.9857	68.3397
18.9866	68.3276
18.9866	68.3527
18.9875	68.3527
18.9883	68.3328
18.9901	68.3302
18.9918	68.3336
18.9927	68.3328
18.9927	68.3363
18.9927	68.3389
18.9936	68.3328
18.9936	68.3354
18.9936	68.3389
18.9944	68.3258
18.9944	68.3406
18.9944	68.3432
18.9944	68.3562
18.9953	68.3267
18.9953	68.3302
18.9953	68.3432
18.9953	68.3562
18.9962	68.325
18.9962	68.3267
18.9962	68.3501
18.997	68.325
18.9979	68.3284
18.9988	68.3284
18.9988	68.3406
18.9996	68.3241
18.9996	68.331
18.9996	68.3363
19.0005	68.3241
19.0005	68.3267
19.0005	68.331
19.0005	68.3406
19.0005	68.3432
19.0014	68.3319
19.0014	68.338
19.0014	68.3432
19.0022	68.331
19.0031	68.3206
19.0031	68.331
19.004	68.3319
19.0048	68.3258
19.0048	68.3519
19.0057	68.3258
19.0057	68.338
19.0066	68.3328
19.0066	68.338
19.0066	68.3389
19.0066	68.3415
19.0074	68.3415
19.0092	68.3198
19.0092	68.3215
19.0092	68.3267
19.0092	68.3284
19.0092	68.3406
19.01	68.331
19.01	68.3406
19.0109	68.3406
19.0135	68.3206
19.0135	68.3328
19.0135	68.3371
19.0135	68.3501
19.0144	68.3206
19.0144	68.3328
19.0161	68.3276
19.017	68.338
19.017	68.3458
19.0178	68.3441
19.0178	68.3458
19.0187	68.3328
19.0187	68.3441
19.0187	68.3484
19.0196	68.3484
19.0204	68.3363
19.0213	68.3432
19.0222	68.3328
19.0239	68.3345
19.0248	68.3293
19.0248	68.3415
19.0256	68.3293
19.0256	68.3415
19.0265	68.3458
19.0265	68.3562
19.0274	68.3458
19.0282	68.331
19.0291	68.3293
19.0291	68.3345
19.03	68.3371
19.03	68.3493
19.0308	68.3371
19.0317	68.3536
19.0326	68.3302
19.0326	68.3423
19.0326	68.3458
19.0326	68.3536
19.0326	68.3571
19.0334	68.3302
19.0334	68.3415
19.0334	68.3458
19.0343	68.331
19.036	68.3475
19.0369	68.3397
19.0369	68.3415
19.0378	68.3415
19.0386	68.3293
19.0386	68.3449
19.0395	68.3406
19.0395	68.3449
19.0412	68.3562
19.043	68.3319
19.0438	68.338
19.0447	68.3319
19.0447	68.3423
19.0447	68.3588
19.0456	68.3319
19.0456	68.3345
19.0456	68.3397
19.0464	68.3579
19.0482	68.3579
19.049	68.3579
19.0508	68.3562
19.0516	68.3328
19.0516	68.3336
19.0516	68.3475
19.0542	68.3501
19.0551	68.3345
19.0551	68.3467
19.0551	68.3501
19.0551	68.3527
19.0551	68.3562
19.056	68.3562
19.0577	68.3536
19.0577	68.3614
19.0603	68.3475
19.062	68.3588
19.0629	68.3571
19.0681	68.3562
19.0681	68.3614
19.069	68.3519
19.0698	68.3519
18.9658	68.351
18.9788	68.351
18.9797	68.3336
18.9797	68.351
18.9805	68.3336
18.9814	68.3276
18.9823	68.3276
18.9823	68.3336
18.9831	68.3276
18.9831	68.3302
18.9831	68.331
18.9831	68.3458
18.984	68.3276
18.984	68.3293
18.9849	68.3276
18.9857	68.338
18.9875	68.3345
18.9892	68.3371
18.9901	68.3293
18.9901	68.338
18.9909	68.3371
18.9909	68.338
18.9909	68.351
18.9918	68.3371
18.9918	68.3415
18.9918	68.351
18.9927	68.3415
18.9944	68.3267
18.9944	68.3415
18.9944	68.3536
18.9953	68.3241
18.9953	68.325
18.9953	68.3415
18.9962	68.3415
18.9979	68.3449
18.9979	68.3484
18.9988	68.3484
18.9996	68.3415
19.0022	68.3232
19.0022	68.3319
19.0022	68.3371
19.0031	68.3319
19.0031	68.3354
19.004	68.325
19.0057	68.3336
19.0057	68.3441
19.0066	68.3441
19.0074	68.3527
19.0074	68.3536
19.0083	68.3458
19.0083	68.351
19.0083	68.3536
19.0092	68.3276
19.0092	68.3458
19.0118	68.3198
19.0118	68.3406
19.0118	68.3553
19.0135	68.3319
19.0161	68.3389
19.017	68.3536
19.0178	68.3536
19.0187	68.3458
19.0222	68.3423
19.023	68.3423
19.0239	68.3423
19.0248	68.3397
19.0248	68.3484
19.0256	68.3484
19.0265	68.3293
19.0265	68.3597
19.0274	68.3423
19.0282	68.3423
19.03	68.331
19.0308	68.331
19.0317	68.331
19.0343	68.3458
19.0352	68.3267
19.0352	68.3319
19.036	68.3319
19.036	68.3623
19.0369	68.3423
19.0369	68.3588
19.0378	68.3423
19.0378	68.3475
19.0386	68.3475
19.0395	68.3527
19.0404	68.331
19.0421	68.3467
19.043	68.3423
19.0438	68.3371
19.0438	68.3423
19.0456	68.3623
19.0464	68.3623
19.0482	68.3354
19.049	68.3397
19.0499	68.3397
19.0508	68.3397
19.0525	68.3389
19.0542	68.3415
19.0542	68.3475
19.0551	68.3605
19.0612	68.3588
19.0646	68.3579
19.0664	68.3562
19.0664	68.3605
19.0672	68.3562
19.0672	68.3614
19.0724	68.3562
19.0733	68.3562
18.9745	68.3432
18.9753	68.3293
18.9797	68.3284
18.9797	68.3484
18.9805	68.3284
18.9805	68.3484
18.9814	68.3284
18.9814	68.331
18.9814	68.3363
18.9814	68.3371
18.9823	68.3284
18.9823	68.331
18.9823	68.3371
18.9831	68.3293
18.9831	68.3406
18.984	68.3284
18.984	68.3406
18.984	68.3493
18.9849	68.3345
18.9857	68.3536
18.9892	68.3302
18.9901	68.3397
18.9909	68.3363
18.9909	68.3397
18.9918	68.3363
18.9918	68.3458
18.9927	68.3267
18.9927	68.331
18.9936	68.3267
18.9953	68.3536
18.9962	68.3293
18.9962	68.3562
18.9979	68.3276
18.9979	68.3423
18.9988	68.3276
18.9988	68.3423
19.0005	68.3319
19.0022	68.3441
19.004	68.3389
19.004	68.3475
19.0048	68.3475
19.0074	68.3267
19.0074	68.3319
19.0083	68.3267
19.0092	68.3206
19.01	68.3415
19.0109	68.3415
19.0118	68.3441
19.0126	68.3441
19.017	68.3389
19.0178	68.3389
19.0187	68.3267
19.0187	68.3345
19.0204	68.338
19.0213	68.338
19.0222	68.3276
19.023	68.3276
19.0239	68.3614
19.0248	68.3475
19.0282	68.3415
19.0291	68.3302
19.0291	68.3354
19.0291	68.3415
19.0317	68.3389
19.0326	68.331
19.0334	68.331
19.0334	68.3336
19.0334	68.3484
19.0343	68.3319
19.0352	68.3588
19.036	68.3363
19.036	68.3588
19.0369	68.3284
19.0369	68.3363
19.0378	68.3284
19.0378	68.3389
19.0386	68.331
19.0386	68.3354
19.0386	68.3493
19.0395	68.331
19.0412	68.3441
19.0421	68.3579
19.043	68.3579
19.043	68.3623
19.0438	68.3623
19.0438	68.364
19.0473	68.331
19.0473	68.3432
19.0473	68.3519
19.0482	68.3519
19.049	68.3354
19.0499	68.3319
19.0499	68.3354
19.0508	68.3363
19.0508	68.3631
19.0516	68.3397
19.0516	68.3562
19.0525	68.3328
19.0525	68.3562
19.0577	68.3397
19.0577	68.3545
19.0612	68.3519
19.0646	68.3527
19.0742	68.3545
18.9667	68.3501
18.9675	68.3501
18.971	68.3397
18.9745	68.3458
18.9753	68.3458
18.9788	68.3336
18.9797	68.3389
18.9814	68.3267
18.9814	68.3302
18.9823	68.3293
18.9823	68.3302
18.9831	68.3284
18.9831	68.3397
18.984	68.338
18.984	68.3397
18.9849	68.338
18.9875	68.3519
18.9883	68.3363
18.9883	68.3519
18.9892	68.3363
18.9892	68.338
18.9901	68.3371
18.9909	68.3423
18.9927	68.351
18.9936	68.3415
18.9936	68.3423
18.9953	68.3484
18.9962	68.3484
18.997	68.3284
18.997	68.3371
18.9979	68.3328
18.9979	68.3371
19.0031	68.3276
19.0031	68.3423
19.0048	68.3449
19.0057	68.3345
19.0066	68.3267
19.0083	68.3527
19.0092	68.3527
19.01	68.3336
19.0109	68.3336
19.0118	68.3415
19.0126	68.3328
19.0126	68.3354
19.0126	68.3467
19.0135	68.3354
19.017	68.3432
19.0222	68.3258
19.023	68.3371
19.0239	68.3363
19.0239	68.3432
19.0256	68.3397
19.0265	68.3302
19.0265	68.3397
19.0282	68.3536
19.03	68.338
19.0308	68.338
19.0308	68.3527
19.0317	68.3406
19.0326	68.3406
19.0343	68.3588
19.043	68.3328
19.0456	68.3545
19.049	68.3406
19.0499	68.338
19.0508	68.3623
19.0525	68.3484
19.0534	68.3484
19.0542	68.3423
19.0542	68.3484
19.0551	68.3536
19.056	68.3467
19.0568	68.3467
19.0577	68.3553
19.0586	68.3415
19.0594	68.3415
19.062	68.3571
19.0629	68.3545
19.0629	68.3614
19.0638	68.3432
19.0638	68.3579
19.0646	68.3432
19.0646	68.3467
19.0655	68.3467
19.069	68.3571
19.0698	68.3571
19.0707	68.3519
18.9641	68.3432
18.9649	68.3432
18.9779	68.3293
18.9788	68.3293
18.9788	68.3397
18.9797	68.3293
18.9797	68.3319
18.9805	68.3293
18.9805	68.331
18.9805	68.3371
18.9814	68.3293
18.9849	68.3493
18.9857	68.3493
18.9866	68.3501
18.9883	68.3406
18.9927	68.338
18.9936	68.3302
18.9944	68.3302
18.9962	68.3284
18.9962	68.3432
18.9988	68.3319
18.9996	68.3319
19.0014	68.3232
19.0014	68.3328
19.0022	68.3328
19.0022	68.3432
19.004	68.3198
19.0048	68.3397
19.0057	68.3267
19.0057	68.3328
19.0057	68.3397
19.0083	68.3562
19.0135	68.338
19.017	68.3336
19.0178	68.3336
19.0196	68.3397
19.0204	68.3397
19.0239	68.3284
19.0265	68.3423
19.0265	68.3449
19.0274	68.3449
19.0291	68.331
19.0291	68.3423
19.03	68.3354
19.0308	68.3493
19.0317	68.3493
19.0326	68.3319
19.0326	68.3588
19.0334	68.3276
19.0334	68.3319
19.0334	68.3588
19.0343	68.3276
19.0343	68.3328
19.0352	68.3293
19.0352	68.3432
19.0369	68.3258
19.0369	68.3293
19.0378	68.3293
19.0395	68.3363
19.0404	68.3319
19.0404	68.3363
19.0404	68.3623
19.0412	68.3623
19.043	68.3336
19.043	68.3614
19.0438	68.3614
19.0473	68.3579
19.049	68.3484
19.0499	68.3484
19.0516	68.3553
19.056	68.3475
19.056	68.351
19.0568	68.3475
19.0577	68.3406
19.0612	68.3545
19.062	68.3545
18.9788	68.3371
18.9797	68.331
18.9797	68.3371
18.9805	68.3302
18.9823	68.3389
18.9918	68.3328
18.9944	68.3284
18.9953	68.3284
18.9953	68.3336
18.9953	68.338
18.9953	68.3553
18.9962	68.3336
18.9962	68.3449
18.9962	68.3553
18.997	68.3363
18.997	68.3449
18.997	68.3475
18.9979	68.3363
18.9979	68.3536
19.0014	68.3536
19.0022	68.3519
19.0022	68.3536
19.0031	68.3519
19.004	68.3328
19.004	68.3336
19.0048	68.3336
19.0083	68.3354
19.0092	68.3562
19.01	68.3562
19.0152	68.3545
19.017	68.351
19.0204	68.3449
19.0213	68.3449
19.023	68.3389
19.0239	68.3371
19.0239	68.3389
19.0248	68.3354
19.0248	68.3371
19.0256	68.3354
19.0282	68.3406
19.0291	68.3406
19.0343	68.3415
19.0343	68.3623
19.0352	68.3415
19.0352	68.3623
19.0378	68.3571
19.0386	68.3302
19.0412	68.3493
19.0473	68.3389
19.0482	68.3389
19.0482	68.3406
19.0508	68.3588
19.0516	68.3406
19.0516	68.3588
19.0516	68.3605
19.0542	68.3354
19.0542	68.3432
19.0551	68.3432
19.0577	68.3562
19.0586	68.3562
19.0594	68.3423
19.062	68.3432
19.0629	68.3458
19.0664	68.351
19.0672	68.351
18.9693	68.3467
18.9771	68.3302
18.9771	68.3328
18.9779	68.3302
18.9779	68.3319
18.9779	68.3328
18.9788	68.3302
18.9788	68.3319
18.9797	68.3302
18.9814	68.3527
18.9857	68.3458
18.9875	68.3363
18.9901	68.351
18.9918	68.331
18.9936	68.3284
18.9936	68.3484
18.9944	68.3389
18.9962	68.3328
18.997	68.3328
19.0014	68.3441
19.0022	68.3363
19.004	68.3406
19.004	68.3458
19.0048	68.3406
19.0074	68.325
19.0109	68.3562
19.0118	68.3302
19.0126	68.3302
19.0126	68.3475
19.0135	68.3241
19.0152	68.3328
19.0152	68.3441
19.0161	68.3441
19.017	68.3467
19.0178	68.3467
19.0222	68.3545
19.023	68.3545
19.0274	68.3467
19.03	68.3432
19.0308	68.3432
19.0378	68.3302
19.0378	68.3397
19.0386	68.3397
19.0404	68.3328
19.043	68.3345
19.0438	68.3345
19.0447	68.3545
19.049	68.3328
19.049	68.3415
19.049	68.3467
19.0499	68.3371
19.0499	68.3415
19.0525	68.3406
19.0534	68.3406
19.0577	68.3415
19.0577	68.3475
19.0577	68.3605
19.062	68.3579
18.9779	68.331
18.9788	68.331
18.9805	68.3397
18.9805	68.3527
18.9814	68.3397
18.984	68.3527
18.9849	68.3527
18.9866	68.3493
18.9901	68.3389
18.9909	68.3336
18.9909	68.3389
18.9918	68.3284
18.9927	68.3284
18.9927	68.3527
18.9953	68.3371
18.997	68.3484
18.997	68.3562
18.9988	68.331
18.9996	68.338
19.0005	68.338
19.0083	68.3415
19.0092	68.3501
19.01	68.3501
19.0118	68.3363
19.0118	68.3562
19.0126	68.3363
19.0161	68.3545
19.017	68.3267
19.017	68.3545
19.0178	68.3267
19.0213	68.3545
19.0248	68.3328
19.0248	68.3363
19.0256	68.3363
19.0265	68.331
19.0274	68.331
19.0274	68.3562
19.0282	68.3475
19.0282	68.3562
19.0291	68.3475
19.03	68.3415
19.0326	68.3389
19.0326	68.3597
19.0334	68.3389
19.0334	68.3519
19.0334	68.3597
19.0421	68.3336
19.0456	68.3415
19.0464	68.3319
19.0542	68.3363
19.0551	68.3363
19.0594	68.3432
19.0603	68.3579
19.0612	68.3579
19.062	68.3467
19.069	68.3545
19.0707	68.351
18.9701	68.3467
18.9753	68.331
18.9762	68.331
18.9771	68.331
18.9805	68.3319
18.9814	68.3319
18.9918	68.3397
18.9936	68.338
18.9936	68.3527
18.9944	68.3336
18.9944	68.338
18.9944	68.3527
18.9996	68.3501
19.0014	68.3527
19.004	68.3484
19.0048	68.3484
19.0083	68.3284
19.0109	68.3371
19.0118	68.3449
19.0126	68.3449
19.0144	68.3215
19.0144	68.3241
19.0152	68.3241
19.0161	68.3345
19.017	68.3345
19.0187	68.3276
19.0291	68.3562
19.0343	68.3527
19.0447	68.3501
19.0473	68.338
19.049	68.3423
19.049	68.3493
19.0499	68.3423
19.0499	68.3493
19.0534	68.3441
19.0594	68.3579
19.0629	68.3467
19.0655	68.3441
19.0733	68.3553
19.0742	68.3553
18.9762	68.3319
18.9883	68.3397
18.9901	68.3432
18.9927	68.3336
18.9936	68.3336
19.0031	68.351
19.004	68.3267
19.004	68.351
19.0048	68.3267
19.0144	68.3449
19.0152	68.3449
19.017	68.3397
19.0196	68.3302
19.023	68.3432
19.0256	68.3371
19.0265	68.3319
19.0274	68.3319
19.0291	68.3458
19.03	68.3458
19.0308	68.3319
19.0308	68.3423
19.0317	68.3423
19.0334	68.3623
19.0421	68.3345
19.0421	68.3631
19.0464	68.3328
19.0516	68.3623
19.0525	68.3371
19.0577	68.3597
19.0586	68.3579
18.9701	68.3493
18.971	68.3493
18.9753	68.3484
18.9814	68.3475
18.984	68.3519
18.9849	68.3519
18.9875	68.351
18.9883	68.351
18.9892	68.3406
18.9901	68.3406
18.9918	68.3389
18.9953	68.3527
18.9996	68.3371
19.0005	68.3371
19.0014	68.3206
19.0014	68.3519
19.0022	68.3206
19.0083	68.3363
19.0118	68.331
19.0126	68.331
19.0135	68.3336
19.0144	68.3336
19.0152	68.3354
19.0178	68.3354
19.0187	68.3397
19.0239	68.3293
19.0326	68.3441
19.0334	68.3441
19.0343	68.3397
19.0386	68.3319
19.0395	68.3319
19.0447	68.3389
19.0456	68.3389
19.0456	68.3527
19.0464	68.3336
19.0482	68.3363
19.049	68.3363
19.049	68.3605
19.0499	68.3336
19.0508	68.3336
19.0516	68.3597
19.0568	68.3423
19.0568	68.3579
19.0577	68.3579
19.0603	68.3545
18.971	68.3475
18.9719	68.3475
18.9936	68.3441
18.9944	68.3441
19.0014	68.3415
19.0022	68.3415
19.0031	68.3336
19.0118	68.3206
19.0118	68.3336
19.0126	68.3215
19.0135	68.3215
19.0144	68.3458
19.0152	68.3458
19.0282	68.338
19.03	68.3562
19.0326	68.3623
19.0334	68.3432
19.0343	68.3432
19.0343	68.3441
19.036	68.3267
19.0378	68.3241
19.0456	68.3553
19.0473	68.3336
19.0482	68.3371
19.049	68.3371
19.0499	68.3501
19.0594	68.3441
18.9719	68.3449
18.9727	68.3449
18.9771	68.3397
18.9779	68.3397
18.9797	68.3276
18.9805	68.3276
18.9875	68.338
18.9883	68.338
18.9892	68.3389
18.9892	68.3397
18.9918	68.3423
18.9927	68.3423
19.0005	68.3328
19.01	68.3319
19.0118	68.3345
19.0135	68.3363
19.0213	68.3267
19.0274	68.3328
19.0291	68.3319
19.03	68.3319
19.0395	68.3328
19.0404	68.3614
19.0412	68.3614
19.0421	68.3623
19.0447	68.3354
19.0482	68.3605
19.049	68.3389
19.0672	68.3605
18.9693	68.3501
18.9788	68.3284
18.9831	68.351
18.9857	68.3467
18.9883	68.3415
19.0005	68.3423
19.0014	68.3336
19.0014	68.3423
19.0022	68.3336
19.0109	68.3423
19.0118	68.3371
19.0126	68.3371
19.0152	68.3467
19.0274	68.3336
19.0317	68.3597
19.036	68.3406
19.0482	68.3336
19.0551	68.3449
19.0655	68.3449
19.0724	68.3553
18.9883	68.3389
18.9883	68.3501
18.9892	68.3501
19.0074	68.3328
19.0083	68.3328
19.0187	68.3363
19.0196	68.3363
19.0213	68.3302
19.0222	68.3302
19.0352	68.3276
19.036	68.3579
19.0369	68.3406
19.0369	68.3579
19.0421	68.3614
19.0464	68.338
19.0482	68.3432
19.049	68.3432
19.0603	68.3441
19.0603	68.3605
19.0612	68.3441
19.0646	68.3536
19.0655	68.3536
18.9762	68.3293
18.9771	68.3293
18.9857	68.3423
18.9866	68.3423
18.9962	68.338
18.997	68.338
19.0005	68.3336
19.0066	68.3423
19.0074	68.3423
19.0291	68.3363
19.0291	68.3432
19.036	68.3276
19.036	68.3423
19.0378	68.3406
19.0386	68.3406
19.0516	68.3493
19.0525	68.3493
19.0716	68.3553
18.9762	68.3397
18.9805	68.3519
18.9883	68.3345
19.01	68.3527
19.0109	68.3354
19.0248	68.3623
19.0256	68.338
19.0256	68.3623
19.0291	68.3371
19.0317	68.3328
19.0326	68.3328
19.0326	68.3501
19.0352	68.3579
19.0421	68.3605
19.0508	68.3501
19.056	68.3432
19.0698	68.3553
19.0707	68.3553
18.9979	68.3241
18.9996	68.3449
19.0005	68.3449
19.0048	68.3432
19.0334	68.3501
19.049	68.3345
19.0499	68.3345
19.069	68.3553
18.9771	68.3319
18.9779	68.3371
19.0066	68.3284
19.0074	68.3284
19.0074	68.3336
19.0083	68.3336
19.0092	68.3432
19.01	68.3432
19.0161	68.3467
19.0213	68.3276
19.0239	68.3302
19.0248	68.3302
19.0308	68.3597
19.0378	68.331
19.0516	68.3415
19.0638	68.3475
19.0672	68.3553
19.0681	68.3553
19.0681	68.3597
19.069	68.3597
18.9788	68.3501
18.9797	68.3501
18.9849	68.3423
18.9857	68.3319
18.9909	68.3284
18.9927	68.3441
19.0196	68.3276
19.0204	68.3276
19.0222	68.3553
19.0378	68.3432
19.0438	68.3389
19.0473	68.3354
19.0508	68.3614
19.0664	68.3545
18.9797	68.3519
18.997	68.3553
19.0178	68.3553
19.0378	68.3319
19.043	68.3536
19.0456	68.3363
19.0464	68.3363
19.049	68.3614
18.984	68.3432
18.9883	68.3293
18.9892	68.3293
19.0057	68.3284
19.0109	68.3493
19.0187	68.3553
19.0196	68.3553
19.0308	68.3553
19.0317	68.3553
18.984	68.3319
18.9849	68.3319
18.9996	68.3432
19.0014	68.3458
19.004	68.3284
19.0048	68.3284
19.0083	68.3345
19.0083	68.3441
19.0291	68.3389
19.03	68.3389
19.03	68.3441
19.0308	68.3441
19.0378	68.3328
19.0386	68.3328
19.0395	68.3415
19.0594	68.3562
18.9684	68.3441
18.9779	68.351
18.9875	68.3406
18.9901	68.3501
18.9927	68.3397
18.9936	68.3397
19.0022	68.3449
19.0031	68.3284
19.0031	68.3449
19.01	68.3345
19.0109	68.3345
19.0178	68.3406
19.0204	68.3371
19.03	68.3623
19.0326	68.3553
19.0334	68.3328
19.0525	68.3458
19.0568	68.3441
19.0577	68.3441
19.0655	68.3562
18.9736	68.3406
18.9745	68.3319
18.9753	68.3319
18.997	68.3441
18.9979	68.3441
19.004	68.3258
19.0352	68.3501
19.0404	68.3605
19.0412	68.3605
19.0464	68.3441
18.9693	68.3441
18.9701	68.3441
18.9918	68.3406
19.0022	68.3458
19.0031	68.3458
19.0118	68.3493
19.023	68.3441
19.0248	68.3614
19.0334	68.3553
19.0343	68.3579
19.0464	68.3397
19.0516	68.3423
19.0525	68.3423
19.0638	68.3484
19.0646	68.3484
19.0178	68.3545
19.0274	68.3614
19.0369	68.3336
19.0404	68.3336
19.0412	68.3336
19.043	68.3545
19.0438	68.3545
19.0456	68.3588
19.0586	68.3449
19.0698	68.3597
18.9771	68.3371
18.9892	68.3415
18.9901	68.3415
19.0135	68.3519
19.036	68.351
19.0369	68.351
19.0447	68.3441
19.0456	68.3441
19.0482	68.3614
19.0499	68.3432
19.0508	68.3458
19.0516	68.3458
19.0586	68.3597
18.9823	68.3406
18.9849	68.3415
19.0014	68.3389
19.0109	68.338
19.0222	68.338
19.0222	68.3449
19.0308	68.3467
19.0317	68.3449
19.0343	68.3553
19.0352	68.3553
19.0404	68.3345
19.0412	68.3345
18.9883	68.3423
18.9892	68.3423
19.0092	68.3354
19.0369	68.3345
19.0378	68.3345
19.0438	68.3449
19.0438	68.3597
19.0447	68.3597
19.0464	68.3614
19.0473	68.3614
19.0499	68.3467
19.0508	68.3467
18.9753	68.3415
18.9762	68.3371
18.9996	68.3302
19.0005	68.3302
19.0464	68.3345
18.9883	68.3432
18.9892	68.3432
19.0048	68.3458
19.0057	68.3458
19.0334	68.3475
19.0369	68.3354
19.0378	68.3354
19.043	68.3597
19.0456	68.3614
18.9805	68.3415
19.0031	68.3267
19.036	68.3545
19.0473	68.3345
19.0594	68.3449
19.0603	68.3449
19.0204	68.3284
19.0369	68.3545
19.0456	68.3406
18.9753	68.3302
18.9762	68.3302
18.9866	68.3397
18.9875	68.3397
19.0161	68.3415
19.017	68.3415
19.0187	68.3545
19.0343	68.3475
19.0352	68.3475
19.0421	68.3449
19.043	68.3449
18.997	68.3545
19.0144	68.3232
19.0204	68.3553
19.036	68.3284
19.0412	68.3449
18.9953	68.3449
19.0144	68.351
19.0378	68.3545
19.0386	68.3545
18.9727	68.3484
19.036	68.3293
19.0395	68.3545
19.0447	68.3415
19.0499	68.3441
19.0698	68.3605
18.9944	68.325
18.9962	68.331
18.997	68.331
19.0014	68.3397
19.0022	68.3397
18.9762	68.3423
18.9771	68.3423
18.9927	68.3258
18.9936	68.3258
19.0456	68.3354
19.0464	68.3354
18.9736	68.338
18.9996	68.3406
19.0352	68.3458
19.036	68.3458
18.9936	68.3449
18.9944	68.3449
19.0135	68.3475
19.0144	68.3475
19.0204	68.3458
19.0213	68.3458
19.0447	68.3614
19.0655	68.3493
18.9927	68.3449
19.0135	68.3389
19.0144	68.3224
19.0248	68.3389
19.0482	68.3475
19.0508	68.351
19.0516	68.351
19.0352	68.3441
19.0404	68.3449
19.0473	68.3449
19.0256	68.3389
19.0222	68.3467
19.0265	68.3389
19.0274	68.3389
19.0343	68.3484
19.0352	68.3484
19.0421	68.3354
19.056	68.3588
19.0282	68.3389
19.0508	68.3519
19.0516	68.3519
18.9762	68.3432
18.9771	68.3432
18.9979	68.3415
18.9988	68.3336
18.9988	68.3415
18.9996	68.3336
19.0464	68.3458
18.9979	68.3336
19.0239	68.3475
19.036	68.3302
19.0369	68.3302
18.9771	68.3441
19.0014	68.3276
19.0022	68.3276
19.0135	68.3397
19.0144	68.3397
19.0421	68.3363
18.9745	68.331
18.9857	68.3406
18.9866	68.3406
18.9962	68.3536
18.997	68.3536
19.0308	68.3397
19.036	68.331
19.0369	68.331
19.0369	68.3458
19.0456	68.3467
19.0369	68.3319
19.0456	68.3475
19.0655	68.3501
18.9736	68.3319
19.043	68.3605
19.0135	68.3406
19.0144	68.3406
19.0395	68.3458
19.0144	68.3415
19.0343	68.3336
19.0352	68.3336
19.0525	68.3519
18.9771	68.351
18.9944	68.3423
18.9953	68.3423
19.01	68.3354
19.0222	68.3484
19.023	68.3484
19.0664	68.3553
18.9745	68.351
19.0256	68.3614
19.0265	68.3614
19.0352	68.3328
19.036	68.3328
19.0534	68.3527
19.0542	68.3527
18.9745	68.3475
18.9753	68.3475
19.0118	68.3215
19.036	68.3336
19.0447	68.3363
19.0534	68.3536
19.0542	68.3536
18.9996	68.3293
19.0421	68.3371
19.043	68.3371
19.0594	68.3458
19.0603	68.3458
18.997	68.3302
18.9979	68.3302
19.0213	68.3284
19.0525	68.3545
19.0534	68.3545
19.0586	68.3467
19.0594	68.3467
18.9771	68.3467
18.9779	68.3467
19.0681	68.351
18.9918	68.3449
19.0525	68.3553
19.0534	68.3553
19.0586	68.3475
19.0594	68.3475
18.9727	68.351
18.9736	68.351
18.9779	68.3458
18.9788	68.3458
19.023	68.3553
18.9719	68.351
19.0213	68.3293
19.0222	68.3293
19.0655	68.3553
18.9988	68.3527
18.9996	68.3527
19.0092	68.3363
19.0213	68.3484
18.9909	68.3345
18.9996	68.3519
19.0005	68.3519
18.9927	68.3432
18.984	68.3415
18.9883	68.3354
18.9892	68.3354
18.984	68.3423
18.9866	68.3363
19.023	68.3302
19.0447	68.3371
19.0534	68.3562
19.01	68.3363
19.0092	68.3371
19.01	68.3371
19.0126	68.3423
19.0135	68.3423
19.0187	68.3493
19.0196	68.3493
18.971	68.351
18.9849	68.3371
18.9857	68.3371
18.9831	68.338
18.9901	68.3441
19.0048	68.3467
19.0057	68.3467
19.01	68.338
19.0187	68.3501
19.0196	68.3501
18.9805	68.3389
18.9814	68.3389
18.9797	68.3397
19.0126	68.3389
19.0204	68.3501
19.0126	68.3397
18.9797	68.3406
18.9953	68.331
19.0256	68.3545
19.0265	68.3545
19.056	68.3571
19.0586	68.3484
19.0594	68.3484
18.9805	68.3406
19.0126	68.3406
19.0274	68.3545
18.9797	68.3415
19.0066	68.3475
19.0213	68.3501
19.0222	68.3501
19.0421	68.3475
19.0629	68.3562
19.0126	68.3415
19.0135	68.3415
19.0014	68.351
19.0074	68.3475
19.0083	68.3215
19.0083	68.3475
19.0282	68.3545
19.0291	68.3545
18.9936	68.331
18.9944	68.331
19.0066	68.3215
19.0074	68.3215
19.0118	68.3423
19.0594	68.3571
19.0568	68.3493
19.0057	68.3215
19.0404	68.3475
19.0412	68.3475
18.9745	68.3328
18.9753	68.3328
19.004	68.3215
19.0048	68.3215
19.0031	68.3215
19.0577	68.3501
19.0586	68.3501
19.0568	68.351
19.0577	68.351
19.0022	68.3215
19.036	68.3345
19.023	68.331
18.9762	68.3336
19.0005	68.3215
19.0014	68.3215
19.036	68.3354
19.0248	68.3319
19.0022	68.351
19.0334	68.3536
19.056	68.3519
19.0256	68.3328
19.0265	68.3328
18.9892	68.3441
18.9892	68.3319
18.9797	68.3423
18.9805	68.3423
18.9901	68.3449
18.9909	68.3449
18.9996	68.3215
19.0048	68.3501
18.9875	68.3328
18.9857	68.3336
19.0256	68.3336
19.0265	68.3336
19.0352	68.3536
19.036	68.3536
19.0057	68.3493
19.056	68.3527
19.0568	68.3527
19.0378	68.3536
19.0386	68.3536
19.0421	68.338
19.043	68.338
18.997	68.3224
18.9979	68.3224
19.056	68.3536
19.0568	68.3536
19.043	68.3389
19.056	68.3545
19.0568	68.3545
19.0568	68.3553
18.9953	68.3232
19.0378	68.3363
19.0568	68.3562
18.9936	68.3241
19.0274	68.3345
18.9944	68.3241
19.0274	68.3354
19.0282	68.3354
19.0274	68.3363
19.0386	68.3371
19.0282	68.3363
19.0274	68.3371
19.0282	68.3371
18.9936	68.325
19.0404	68.338
18.984	68.3345
18.9918	68.3258
18.9823	68.3345
18.9831	68.3345
19.0404	68.3389
19.0404	68.3397
18.9814	68.3345
18.9797	68.3345
18.9805	68.3345
19.0404	68.3406
19.0412	68.3406
19.0404	68.3415
19.0412	68.3415
19.043	68.3397
19.0568	68.3571
19.0118	68.3432
19.0126	68.3432
19.0291	68.338
19.043	68.3406
19.0109	68.3441
19.0421	68.3415
18.9788	68.3345
19.01	68.3449
18.9771	68.3345
18.9779	68.3345
18.9762	68.3345
18.9753	68.3354
18.9727	68.3363
18.9736	68.3363
19.0395	68.3423
18.9719	68.3371
18.971	68.338
19.01	68.3458
18.9901	68.3458
18.9909	68.3458
18.9918	68.3267
18.9883	68.3467
19.01	68.3467
19.0092	68.3475
18.9909	68.3276
19.0308	68.3389
18.9875	68.3475
18.9901	68.3284
18.9823	68.3432
18.9831	68.3432
18.9875	68.3293
19.0412	68.3423
18.9814	68.3441
18.9823	68.3441
18.9814	68.3449
18.9823	68.3449
18.971	68.3389
18.9701	68.3397
18.971	68.3406
18.9719	68.3406
18.9866	68.3302
18.9857	68.331
18.971	68.3415
18.9719	68.3415
18.9719	68.3423
18.9719	68.3432
19.0317	68.3397
19.0326	68.3397
19.0343	68.3406
19.0352	68.3406
18.9831	68.3319
18.9805	68.3328
18.9814	68.3328
18.9797	68.3328
19.0386	68.3415
19.0386	68.3423
18.9788	68.3328
19.0386	68.3432
18.9771	68.3336
18.9779	68.3336
19.056	68.3579
18.9727	68.3345
19.0404	68.3423
18.9719	68.3354
18.9719	68.3363
19.0395	68.3432
18.971	68.3371
18.9693	68.338
18.9701	68.338
19.0534	68.3588
19.0542	68.3588
18.9675	68.3389
18.9675	68.3397
18.9675	68.3406
18.9667	68.3415
18.9675	68.3423
18.9684	68.3423
18.9701	68.3432
18.971	68.3432
19.0499	68.3597
19.0508	68.3597
19.049	68.3597
19.0473	68.3597
19.0482	68.3597
19.0464	68.3605
19.0473	68.3605
19.0456	68.3605
19.0438	68.3605
19.0447	68.3605
19.0412	68.3597
19.0421	68.3597
19.0412	68.3588
19.0421	68.3588
19.0378	68.3441
18.9727	68.3441
18.9736	68.3441
18.9745	68.3441
19.0378	68.3449
19.0378	68.3458
19.0386	68.3458
18.9771	68.3449
18.9779	68.3449
18.9788	68.3449
19.0369	68.3467
19.0369	68.3475
18.9797	68.3449
19.036	68.3484
19.036	68.3493
19.0386	68.3501
19.0412	68.3501
19.0438	68.351
19.0447	68.3519
19.0456	68.3519
19.0438	68.3519
18.9805	68.3458
18.9814	68.3458
18.9823	68.3467
18.9849	68.3475
18.9875	68.3484
18.9883	68.3493
18.9892	68.3493
18.9927	68.3493
18.9936	68.3493
18.997	68.3493
18.9979	68.3493
18.9988	68.3493
19.0031	68.3493
19.004	68.3493
19.0048	68.3493
19.0083	68.3484
19.0092	68.3484
19.01	68.3484
19.0126	68.3484
19.0135	68.3484
19.0126	68.3493
19.0135	68.3493
19.0144	68.3501
19.0178	68.351
19.0187	68.351
19.0196	68.351
19.0204	68.351
19.0213	68.351
19.0222	68.351
19.023	68.351
19.0256	68.351
19.0265	68.351
19.03	68.351
19.0308	68.351
19.0334	68.351
19.0343	68.351
19.0386	68.3519
19.0395	68.3519
19.0404	68.3519
19.0412	68.3527
19.0421	68.3527
19.0395	68.3536
19.0404	68.3545
19.0412	68.3545
19.0404	68.3553
19.0412	68.3553
19.0421	68.3553
19.0412	68.3571
19.0404	68.3579
19.0317	68.3588
19.0291	68.3597
19.03	68.3597
19.0282	68.3605
19.0256	68.3605
19.0265	68.3605
19.0248	68.3605
19.023	68.3605
19.0239	68.3605
