!///////////////////////////////////////////////////////////////////////////////////////
!// PARAMETERS FOR PFTS
!// Run GUESS with -help option for list of keywords and their meanings

group "common" (

	! Parameters common to all PFTs

	lambda_max 0.8
	emax 5
	reprfrac 0.1
	wscal_min 0.35
	drought_tolerance 0.0001	
	! default value - ensures that this has little effect even if  
	! ifdroughtlimitedestab is turned on

	landcover "natural"
!	hydrology "rainfed"
!	intercrop "nointercrop"	
	harv_eff 0.7
	res_outtake 0.75
)

group "tree" (

	! Parameters common to all trees

	common
	lifeform "tree"
	crownarea_max 50	
	ltor_max 1
	turnover_root 0.7
	rootdist 0.6 0.4	
	k_allom2 60		
	k_allom3 0.67
	k_rp 1.6
	wooddens 200
!	cton_leaf 29			
	cton_root 29
	cton_sap 330
	nuptoroot 0.0028
	km_volume 0.000001477
	pathway "c3"
	respcoeff 1.0	! utkommenterad hos Thomas !
	kest_repr 200 	! 200
	kest_bg 0.1 	! 1 i guess2008
	kest_pres 1 	! 0 i guess2008
	k_chilla 0
	k_chillb 100
	k_chillk 0.05
	litterme 0.3

	turnover_harv_prod 0.04 ! Turnover rate for long-lived harvested products (wood) : 0.04 corresponds to a 25-year turnover time (as in Bondeau 2007)
	harvest_slow_frac 0.33	! Bondeau 0.33
	harv_eff 0.95
)

group "shrub" (	
	! Unchanged from species version
	common
	lifeform "tree"
	leafphysiognomy "broadleaf"
	crownarea_max 10
	ltor_max 1
	k_allom1 100
	k_allom2 5
	k_allom3 0.67
	k_rp 1.6
	wooddens 250
!	cton_leaf 29
!	cton_leaf_min 16
	cton_root 29
	cton_sap 330
	nuptoroot 0.0028
	km_volume 0.000001477
	fnstorage 0.3
	pathway "c3"
	kest_repr 20
	kest_bg 0.1
	kest_pres 1
	litterme 0.3
	rootdist 0.6 0.4
	longevity 100

	turnover_harv_prod 1 ! Turnover rate for long-lived harvested products (wood) : 1-year turnover time for GRASS
	harvest_slow_frac 0
)

group "grass" (

	! Parameters common to all grasses

	common
	lifeform "grass"
	leafphysiognomy "broadleaf"
	ltor_max 0.5
	rootdist 0.9 0.1  !Sitch et al give 0.9 0.1	Fraction of fine roots in the upper and lower soil layers.
	gmin 0.5
	phenology "any"
	phengdd5ramp 100		! C3 har 50 hos Thomas
	leaflong 0.5				! Leaf longevity (years)
	turnover_leaf 1
	turnover_root 0.7		! 0.5 hos guess2008
!	cton_leaf 29
!	cton_leaf_min 16
	cton_root 29
	nuptoroot 0.00551
	km_volume 0.000001876
	fnstorage 0.3
	litterme 0.2
	parff_min 1000000		! 2500000 i guess2008	
	fireresist 0.5			! 1.0 hos Thomas
	intc 0.01
	ga 0.030

	res_outtake 0
	turnover_harv_prod 1 ! Turnover rate for long-lived harvested products (wood) : 1-year turnover time for GRASS
	harvest_slow_frac 0
)


group "crop" (

	! Parameter common to all crops

	include 1
	phenology "cropgreen"
	rootdist 0.9 0.1  !Sitch et al give 0.9 0.1	Fraction of fine roots in the upper and lower soil layers.
!	sla 41.1      ! value overridden if "ifcalcsla 1" specified above
	fireresist 0.5  ! 9.11.02  Alb (originally fireresist=1)						!Included in grass
	respcoeff 1   ! Sitch et al 2001 specify 1.2				!090910 for cohort /ML; NB: guess2.1 grass value is 2.0. Keep 1.0 for crops ??
	gmin 0.5
	turnover_leaf 1
	turnover_root 0.7
	intc 0.01
	leaflong 1			! Leaf longevity (years)
	frootstart 0.40
	frootend 0.20

	tcmin_surv -1000 ! limit not implemented					! value not relevant for non-autumn-sown crops
	tcmin_est -1000  ! limit not implemented					! value not relevant for non-autumn-sown crops
	tcmax_est 1000  	!no limit	
	twmin_est -1000  ! limit not implemented
	gdd5min_est 0   	!no limit; previously initiated to 1000 in initpft()

	parff_min 0	!110302: true crops, reset to 1000000 for crop grass

	landcover "cropland"
!	intercrop "naturalgrass"	! ML CFT
	ifsdcalc 0
	ifsdtemp 0
	ifsdautumn 0
	ifsdspring 0
	ifsdprec 0
	tempautumn 12
	tempspring 12

	harv_eff 0.9		! Part of harvestable organs actually harvested
	harvest_slow_frac 0	! Part of harvest that goes into patchpft.harvested_products_slow, the rest goes into fluxes.acflux_harvest
	turnover_harv_prod 1 	! Turnover rate for long-lived harvested products (wood) : 1-year turnover time for crops
	res_outtake 0.75	! Part of residues after harvest removed from stand; goes into fluxes.acflux_harvest
	aboveground_ho 1	! 
	isintercropgrass 0
	readsowingdate 0
	readharvestdate 0
!	forceautumnsowing 0
	readNfert 1
	nlim 0
)

group "broadleaved" (

	! Parameters common to all broadleaved trees

	leafphysiognomy "broadleaf"
!	cton_leaf_min 16
	k_allom1 250
	k_latosa 6000
	gmin 0.5
	intc 0.02
	ga 0.040
)

group "needleleaved" (

	! Parameters common to all needleleaved trees

	leafphysiognomy "needleleaf"
!	cton_leaf_min 28
	k_allom1 150
	k_latosa 5000
	gmin 0.3
	intc 0.06
	ga 0.140
)

group "evergreen" (

	! Parameters common to all evergreen trees

	phenology "evergreen"
	fnstorage 0.05
	phengdd5ramp 0
)

group "summergreen" (

	! Parameters common to all summergreen trees

	phenology "summergreen"
	fnstorage 0.15
	phengdd5ramp 200
	leaflong 0.5
	turnover_leaf 1
)

group "boreal" (

	! Parameters common to all boreal trees

	pstemp_min -4
	pstemp_low 10
	pstemp_high 25
	pstemp_max 38
	respcoeff 1.0
)

group "temperate" (

	! Parameters common to all temperate trees

	pstemp_min -2
	pstemp_low 15
	pstemp_high 25
	pstemp_max 38
	respcoeff 1.0
)

group "tropical" (

	! Parameters common to all tropical trees

	tcmin_surv 15.5
	tcmin_est 15.5
	tcmax_est 1000   ! no limit
	twmin_est -1000  ! no limit
	gdd5min_est 0    ! no limit
	pstemp_min 2
	pstemp_low 25
	pstemp_high 30
	pstemp_max 55
	respcoeff 0.15	
)


! greff_min values below calibrated for the smooth (ifsmoothgreffmort 1) option 
group "shade_tolerant" (
	est_max 0.05					
	parff_min 350000			
	alphar 3.0          			
	greff_min 0.04				
	turnover_sap 0.05
)

! So far only trial values; not used in this global version
group "intermediate_shade_tolerant" (
	est_max 0.15					
	parff_min 2000000			
	alphar 7.0          			
	greff_min 0.06				
	turnover_sap 0.075
)

! From global version; values from orginal European version after "!"
group "shade_intolerant" (
	est_max 0.2					
	parff_min 2500000 
	alphar 10.0 
	greff_min 0.08
	turnover_sap 0.1
)



group "BNE" (

	! Boreal needleleaved evergreen tree

	include 1
	tree
	needleleaved
	shade_tolerant
	evergreen
	boreal
	leaflong 3
	turnover_leaf 0.33
	tcmin_surv -31
	tcmin_est -30
	tcmax_est -1
	twmin_est 5
	gdd5min_est 500
	longevity 500
	fireresist 0.3
	eps_iso 8.0
	seas_iso 0
	eps_mon 4.8
	storfrac_mon 0.5
)

pft "BNE" (

	BNE
!	landcover "natural"
)

group "BINE" (

	! Boreal needleleaved evergreen tree

	include 1
	tree
	needleleaved
	shade_intolerant
	evergreen
	boreal
	leaflong 3
	turnover_leaf 0.33
	tcmin_surv -31
	tcmin_est -30
	tcmax_est -1
	twmin_est 5
	gdd5min_est 500
	longevity 500
	fireresist 0.3
	eps_iso 8.0
	seas_iso 0
	eps_mon 4.8
	storfrac_mon 0.5
)

pft "BINE" (
	BINE
!	landcover "natural"
)

group "BNS" (

	! Boreal needleleaved summergreen tree

	include 1
	tree
	needleleaved
	shade_intolerant
	summergreen
	boreal
	tcmin_surv -1000  ! no limit
	tcmin_est -1000   ! no limit
	tcmax_est -2
	twmin_est -1000   ! no limit
	twminusc 43       ! AA from TH 03-11 added this
	gdd5min_est 350	! Stefan added new value, old 500 (N)
	phengdd5ramp 100	! Stefan added new value, old 200 (N)
	longevity 300
	fireresist 0.3
	eps_iso 8.0
	seas_iso 1
	eps_mon 4.8
	storfrac_mon 0.5
)

pft "BNS" (
	BNS
!	landcover "natural"
)

group "TeNE" (

	! Temperate needleleaved evergreen tree

	include 0
	tree
	needleleaved
	shade_intolerant ! cf Jun_oxy, Pin_hal in europe.ins
	evergreen
	temperate
	leaflong 3
	turnover_leaf 0.33
	tcmin_surv -2 ! As in Sitch et al. (2003), a little lower than TeBE
	tcmin_est -2 ! As in Sitch et al. (2003), a little lower than TeBE
	tcmax_est 10 ! Hickler et al. (2012) have 9 degC for Pin_hal
	twmin_est 5  ! low, since Hickler et al. (2012) have -1000 for Jun_oxy
	gdd5min_est 2000 !(Stefans value 900)2000 ! As TeBE, a little lower than Jun_oxy, Pin_hal in europe.ins
	longevity 300  ! Hickler et al. (2012) have 350 for Pin_hal
	fireresist 0.3 ! Hickler et al. (2012) have 0.2 for Pin_hal and 0.4 for Jun_oxy
	    eps_iso 8.0	!?????????????
        seas_iso 0	!?????????????
        eps_mon 4.8	!?????????????
        storfrac_mon 0.5	!?????
)

pft "TeNE" (
	TeNE
!	landcover "natural"
)

group "TeBS" (

	! Shade-tolerant temperate broadleaved summergreen tree

	include 1
	tree
	broadleaved
	shade_tolerant
	summergreen
	temperate
	tcmin_surv -14
	tcmin_est -13
	tcmax_est 6
	twmin_est 5
	gdd5min_est 1100
	longevity 400
	fireresist 0.1
	eps_iso 45.0
	seas_iso 1
	eps_mon 1.6
	storfrac_mon 0.
)

pft "TeBS" (
	TeBS
!	landcover "natural"
)

group "IBS" (

	! Shade-intolerant broadleaved summergreen tree

	include 1
	tree
	broadleaved
	shade_intolerant
	summergreen
	boreal
	tcmin_surv -30
	tcmin_est -30
	tcmax_est 7
	twmin_est -1000  !no limit
	gdd5min_est 350 !from TH 2010-03-10 AA
	longevity 300 !from TH 2010-04-07 was 300 AA
	fireresist 0.1
	eps_iso 45.0
	seas_iso 1
	eps_mon 1.6
	storfrac_mon 0.
)

pft "IBS" (
	IBS
!	landcover "natural"
)

group "TeBE" (

	! Temperate broadleaved evergreen tree

	include 1
	tree
	broadleaved
	shade_tolerant
	evergreen
	temperate
	leaflong 3
	turnover_leaf 0.33
	tcmin_surv -1
	tcmin_est 0
	tcmax_est 10
	twmin_est 5
	gdd5min_est 2000
	longevity 300 !from TH 2010-04-07 was 350 AA
	fireresist 0.3
	eps_iso 24.0
	seas_iso 0
	eps_mon 1.6
	storfrac_mon 0.
)

pft "TeBE" (
	TeBE
!	landcover "natural"
)

group "TrBE" (

	! Tropical broadleaved evergreen tree

	include 1
	tree
	broadleaved
	shade_tolerant
	evergreen
	tropical
	leaflong 2
	turnover_leaf 0.5
	longevity 500   !from Thomas H 2010-03-30 new 500 instead of 600 2010-04-07
	fireresist 0.1
	eps_iso 24.0
	seas_iso 0
	eps_mon 0.8
	storfrac_mon 0.
)

pft "TrBE" (
	TrBE
!	landcover "natural"
)

group "TrIBE" (

	! Tropical broadleaved evergreen tree

	include 1
	tree
	broadleaved
	shade_intolerant
	evergreen
	tropical
	leaflong 2
	turnover_leaf 0.5
	longevity 200
	fireresist 0.1
	eps_iso 24.0
	seas_iso 0
	eps_mon 0.8
	storfrac_mon 0.

)

pft "TrIBE" (
	TrIBE
!	landcover "natural"
)

group "TrBR" (

	! Tropical broadleaved raingreen tree

	include 1
	tree
	broadleaved
	shade_intolerant
	tropical
	phenology "raingreen"
	fnstorage 0.15
	leaflong 0.5
	turnover_leaf 1
	longevity 400    ! from Thomas h 2010-03-30
	fireresist 0.3
	eps_iso 45.0
	seas_iso 0
	eps_mon 2.4
	storfrac_mon 0.
)

pft "TrBR" (
	TrBR
!	landcover "natural"
)

group "C3G" (

	! Cool (C3) grass

	include 1
	grass
	pathway "c3"
	respcoeff 1.0
	pstemp_min -5
	pstemp_low 10
	pstemp_high 30
	pstemp_max 45
	tcmin_surv -1000	!no limit
	tcmin_est -1000 	!no limit
	tcmax_est 1000  	!no limit
	twmin_est -1000 	!no limit
	gdd5min_est 0   	!no limit
	eps_iso 16.0
	seas_iso 1
	eps_mon 1.6
	storfrac_mon 0.5
)

pft "C3G" (
	C3G
!	landcover "natural"
)

group "C4G" (

	! Warm (C3) grass

	include 1
	grass
	pathway "c4"
	respcoeff 0.15
	pstemp_min 6
	pstemp_low 20
	pstemp_high 45
	pstemp_max 55
	tcmin_surv 15.5
	tcmin_est 15.5
	tcmax_est 1000  !no limit
	twmin_est -1000 !no limit
	gdd5min_est 0   !no limit
	eps_iso 8.0
	seas_iso 0
	eps_mon 2.4
	storfrac_mon 0.5
)

pft "C4G" (
	C4G
!	landcover "natural"
)


group "forest" (
	include 0
)

pft "BNE_F" (

	BNE
	forest
	landcover "forest"
)

pft "BINE_F" (
	BINE
	forest
	landcover "forest"
)

pft "BNS_F" (
	BNS
	forest
	landcover "forest"
)


pft "TeNE_F" (
	TeNE
	forest
	landcover "forest"
)

pft "TeBS_F" (
	TeBS
	forest
	landcover "forest"
)

pft "IBS_F" (
	IBS
	forest
	landcover "forest"
)

pft "TeBE_F" (
	TeBE
	forest
	landcover "forest"
)

pft "TrBE_F" (
	TrBE
	forest
	landcover "forest"
)

pft "TrIBE_F" (
	TrIBE
	forest
	landcover "forest"
)

pft "TrBR_F" (
	TrBR
	forest
	landcover "forest"
)

pft "C3G_F" (
	C3G
	forest
	landcover "forest"
	harv_eff 0
)

pft "C4G_F" (
	C4G
	forest
	landcover "forest"
	harv_eff 0
)

pft "C3G_past" (
	C3G
	landcover "pasture"
	harv_eff 0.5			! old value; intensive grazing: 90% grazed, 25-60 % returned to soil as faeces (0.36-0.675 removed, 0.5 OK average)
	res_outtake 0.0			! not used by crop grass

)

pft "C4G_past" (
	C4G
	landcover "pasture"
	harv_eff 0.5			! old value; intensive grazing: 90% grazed, 25-60 % returned to soil as faeces (0.36-0.675 removed, 0.5 OK average)
	res_outtake 0.0			! not used by crop grass
)

pft "C3G_urban" (
	C3G
	landcover "urban"
	harv_eff 0
)

pft "C3G_peat" (
	C3G
	landcover "peatland"
	harv_eff 0
)

group "CC3G" (
	C3G
	landcover "cropland"
	laimax 4
!	intercrop "nointercrop"		! ML CFT
	isintercropgrass 0
	harv_eff 0.5
	harv_eff_ic 0.0
	res_outtake 0.0			! not used by crop grass
)

group "CC4G" (
	C4G
	landcover "cropland"
	laimax 4	
!	intercrop "nointercrop"		
	isintercropgrass 0
	harv_eff 0.5			! old value; intensive grazing: 90% grazed, 25-60 % returned to soil as faeces (0.36-0.675 removed, 0.5 OK average)
	harv_eff_ic 0.0
	res_outtake 0.0			! not used by crop grass
)

group "TeWW" (

	! Winter cereals, Triticum spp. (wheat), Hordeum vulgare (barley), Secale cereale (rye), Avena sativa (oat)
	
	grass
	crop
	include 1
	pathway "c3"
	phengdd5ramp 500
	pstemp_min -5	
	pstemp_low 10	
	pstemp_high 30	
	pstemp_max 45	

	sdatenh 330	! for initialization, otherwise calculated to be adapted to climate and precocity
	sdatesh 150	! idem
	tb 0		! base temperature
	trg 12		! temperatures have a vernalizing effect until trg
	pvd 0		! not implemented since calculated to be adapted to climate
	psens 0.5		! temporary, should be adapted to climate and precocity ?
	pb 8		! not yet implemented
	ps 20		! not yet implemented
	phu 2900	! not implemented since calculated to be adapted to climate
	hlimitdatenh 269! for initialization
	hlimitdatesh 89	! idem

!!	fphuc 0.05							! SWAT winter wheat values
!!	flaimaxc 0.05
!!	fphuk 0.45
!!	flaimaxk 0.95
	fphusen 0.7							! SWAT 0.9

	shapesenescencenorm 1
	flaimaxharvest 0
!!	laimax 6	! 									; increase ? 10 in Eslami et al 2006
	hiopt 0.5	! FAO/IIASA AEZ				
	himin 0.2						

	ifsdcalc 1
	ifsdtemp 1
	ifsdautumn 1
	ifsdspring 1
	tempautumn 12
	tempspring 5
	readsowingdate 1
	readharvestdate 1
	forceautumnsowing 0	! 0 No forcing, 1 Autumn, 2 Spring
)

group "TrRi" (

	! rice, Oryza sativa

	grass
	crop
!	include 0
	pathway "c3"
	pstemp_min -5	
	pstemp_low 10	
	pstemp_high 30	
	pstemp_max 45	

	sdatenh 120	! for initialization, otherwise calculated, possibly several growing seasons in one year
	sdatesh 300	! idem	new value 1004 /ML
	tb 10		! base temperature
	trg 10		! temperatures have a vernalizing effect until trg
	pvd 0
	psens 1		! temporary, should be adapted to climate and precocity ?
	pb 24		! not yet implemented
	ps 0		! not yet implemented
	phu 1800
	hlimitdatenh 60		! for initialization
	hlimitdatesh 240	! for initialization

!!	fphuc 0.1		! NEW 100413
!!	flaimaxc 0.05		! NEW 100413
!!	fphuk 0.5		! NEW 100413
!!	flaimaxk 0.95
	fphusen 0.80		! SWAT 0.9

	shapesenescencenorm 1
	flaimaxharvest 0	
!!	laimax 5	! SWAT					; Increase to 10-12 (Peng 2000), 12.7 (Kiniry 2001)
	hiopt 0.5
	himin 0.25

!	intercrop "nointercrop"	
	ifsdcalc 1
	tempspring 18
	readsowingdate 1
	readharvestdate 1
)

group "TeCo" (

	! maize; Zea mays

	grass
	crop
!	include 1
	pathway "c4"
	phengdd5ramp 500
	pstemp_min 6						
	pstemp_low 20
	pstemp_high 45
	pstemp_max 55

	respcoeff 0.15	! 110301

	sdatenh 140	! for initialization, otherwise calculated to be adapted to climate and precocity
	sdatesh 320	! idem
	tb 8		! SWAT: test 110527
	trg 8		! temperatures have a vernalizing effect until trg
	pvd 0
	psens 1		! temporary, should be adapted to climate and precocity
	pb 0		! not yet implemented
	ps 24		! not yet implemented
	phu 1400	! test alberte
	hlimitdatenh 360 ! for initialization
	hlimitdatesh 176 ! idem; changed from 175 111115
	firstsowdatenh_prec -1		! not used
	firstsowdatesh_prec -1		! not used

!!	fphuc 0.10						! SWAT 0.15
!!	flaimaxc 0.05
!!	fphuk 0.5
!!	flaimaxk 0.95
	fphusen 0.75						! SWAT 0.9

	shapesenescencenorm 1
	flaimaxharvest 0
!!	laimax 6	! 					; OK? (6.0 Kiniry & Bockholt 1998, 7.9 Kiniry et al 2004) 
	hiopt 0.5	! SWAT (silage 0.9)
	himin 0.3

	ifsdcalc 1
	ifsdtemp 1
	ifsdspring 1
	ifsdprec 1
	tempspring 14
	readsowingdate 1
	readharvestdate 1
)

group "TrMi" (

	! Tropical cereals; Pennisetum glaucum (pearl millet), Setaria italica (foxtail millet), Panicum miliaceum (common millet), Eleucine coracana (finger millet), Sorghum

	grass
	crop
!	include 1
	pathway "c4"
	phengdd5ramp 500
	pstemp_min 6						
	pstemp_low 20
	pstemp_high 45
	pstemp_max 55

	respcoeff 0.15	! 110301

	sdatenh 150	! for initialization
	sdatesh 330	! for initialization
	tb 10		! base temperature
	trg 10		! temperatures have a vernalizing effect until trg
	pvd 0
	psens 1		! temporary, should be adapted to climate and precocity ?
	pb 0		! not yet implemented
	ps 24		! not yet implemented
	phu 2000
	hlimitdatenh 50		! for initialization
	hlimitdatesh 230	! for initialization
	firstsowdatenh_prec 120
	firstsowdatesh_prec 300			

!!	fphuc 0.15				! values for pearl millet (P. glaucum)
!!	flaimaxc 0.01
!!	fphuk 0.50
!!	flaimaxk 0.95
	fphusen 0.85				! SWAT 0.9

	shapesenescencenorm 1
	flaimaxharvest 0
!!	laimax 2.5	! SWAT						;  Increase to 4(Akponikpe 2004)-5.5(
	hiopt 0.25	! SWAT
	himin 0.1
	ifsdcalc 1
	ifsdprec 1
	tempspring 12	
)

group "TePu" (

	! Lentils

	grass
	crop
!	include 1
	pathway "c3"
	phengdd5ramp 500
	pstemp_min -5	
	pstemp_low 10	
	pstemp_high 30	
	pstemp_max 45	

	sdatenh 100	! for initialization
	sdatesh 280	! for initialization
	tb 3		! base temperature
	trg 3		! temperatures have a vernalizing effect until trg
	pvd 0
	psens 1		! temporary, should be adapted to climate and precocity ?
	pb 0		! not yet implemented
	ps 24		! not yet implemented
	phu 2000
	hlimitdatenh 364	
	hlimitdatesh 180! for initialization

!!	fphuc 0.15
!!	flaimaxc 0.02
!!	fphuk 0.50
!!	flaimaxk 0.95
	fphusen 0.90

	shapesenescencenorm 2
	flaimaxharvest 0
!!	laimax 4	! SWAT						; Increase to 5 (cowpea, Bastos 2011), 5(chickpea)-6(bean, cowpea): Tesfaye 2006
	hiopt 0.6	! SWAT 0.61
	himin 0.01
	ifsdcalc 0
	tempspring 10
	readsowingdate 1
	readharvestdate 1
)

group "TeSb" (

	! Sugarbeet   Pascalle; Beta vulgaris

	grass
	crop
!	include 1
	pathway "c3"
	phengdd5ramp 500
	pstemp_min -5							
	pstemp_low 10
	pstemp_high 30
	pstemp_max 45

	sdatenh 90	! temporary, should be adapted to climate
	sdatesh 270	! temporary, should be adapted to climate
	tb 3		! base temperature
	trg 3		! temperatures have a vernalizing effect until trg
	pvd 0
	psens 1
	pb 0
	ps 24
	phu 2700
	hlimitdatenh 330	! temporary, should be adapted to climate
	hlimitdatesh 146	! temporary, should be adapted to climate; changed from 145 111115

!!	fphuc 0.15
!!	flaimaxc 0.05
!!	fphuk 0.5
!!	flaimaxk 0.95
	fphusen 0.75		! SWAT 0.9

	shapesenescencenorm 0
	flaimaxharvest 0.75
!!	laimax 5	! SWAT									; Increase ? 8 (Monreal 2007)
	hiopt 2.0	! SWAT (Achtung below-ground) ! 0.15 AEZ (fraction of total biomass)
	himin 1.1
	ifsdcalc 0
	tempspring 8	
	aboveground_ho 0
)

group "TrMa" (

	! Roots and tubers (Africa); Manihot esculenta; aka. cassava, yuka

	grass
	crop
!	include 1		
	pathway "c3"
	phengdd5ramp 500
	pstemp_min -5							
	pstemp_low 10
	pstemp_high 30
	pstemp_max 45

	sdatenh 100	! for initialization
	sdatesh 280	! for initialization
	tb 15		! base temperature
	trg 15		! temperatures have a vernalizing effect until trg
	pvd 0
	psens 1		! temporary, should be adapted to climate and precocity 
	pb 0		! not yet implemented
	ps 24		! not yet implemented
	phu 2000
	hlimitdatenh 330! for initialization
	hlimitdatesh 146! for initialization
	firstsowdatenh_prec 80
	firstsowdatesh_prec 260 		

!!	fphuc 0.15
!!	flaimaxc 0.05
!!	fphuk 0.5
!!	flaimaxk 0.95
	fphusen 0.75

	shapesenescencenorm 0
	flaimaxharvest 0.75
!!	laimax 5	! like sugarbeet ?				;	4-8 (Cock 1984) (highest 10)
	hiopt 2.0	! like sugarbeet ?
	himin 1.1
	ifsdcalc 1
	ifsdprec 1
	tempspring 22	! New sowing date algorithm
	aboveground_ho 0
)

group "TeSf" (

	! Sunflower; Helianthus annuus

	grass
	crop
!	include 1		
	pathway "c3"
	phengdd5ramp 500
	pstemp_min -5		
	pstemp_low 10	
	pstemp_high 30	
	pstemp_max 45	

	sdatenh 120	! for initialization, otherwise calculated to be adapted to climate and precocity
	sdatesh 300	! idem
	tb 6		! base temperature
	trg 6		! temperatures have a vernalizing effect until trg
	pvd 0
	psens 1		! temporary, should be adapted to climate and precocity ?
	pb 0		! not yet implemented
	ps 24		! not yet implemented
	phu 1500	! not implemented since calculated to be adapted to climate and precocity
	hlimitdatenh 300 ! for initialization, otherwise calculated to be adapted to climate and precocity
	hlimitdatesh 116 ! idem; changed from 115 111115

!!	fphuc 0.15
!!	flaimaxc 0.01
!!	fphuk 0.5
!!	flaimaxk 0.95
	fphusen 0.7			! SWAT 0.9

	shapesenescencenorm 1
	flaimaxharvest 0
!!	laimax 3	! SWAT						;	Increase to 7 (Howell)
	hiopt 0.3	! SWAT
	himin 0.2	! SWAT 0.18
	ifsdcalc 1
	ifsdtemp 1
	ifsdautumn 0
	ifsdspring 1
	ifsdprec 0
	tempspring 15	!NB Bondeau 13, paper 15 changed to 15 100104
!	tempspring 13	! New sowing date algorithm, new value	: use ??????
)

group "TeSo" (

	! Soybean;   Glycine max

	grass
	crop
!	include 1			
	pathway "c3"
	phengdd5ramp 500
	pstemp_min -5		
	pstemp_low 10	
	pstemp_high 30	
	pstemp_max 45	

	sdatenh 140
	sdatesh 320
	tb 10		! base temperature

	trg 10		! temperatures have a vernalizing effect until trg
	pvd 0
	psens 1
	pb 0
	ps 24
	phu 1500
	hlimitdatenh 330	! temporary, should be adapted to climate
	hlimitdatesh 146	! temporary, should be adapted to climate; changed from 150 111115

!!	fphuc 0.15
!!	flaimaxc 0.01		! SWAT 0.05
!!	fphuk 0.5
!!	flaimaxk 0.95
	fphusen 0.6		! SWAT 0.9

	shapesenescencenorm 0
	flaimaxharvest 0
!!	laimax 3	! SWAT							; Too small: increase to at least 5.5 (Oliver 1979 (5.6), Liu 2005)
	hiopt 0.3	! SWAT 0.31
	himin 0.01
	ifsdcalc 0
	tempspring 13	! New sowing date algorithm
)

group "TrPe" (

	! Peanut for part of RIVM's oil crops (Africa and Asia ?)   Arachis hypogaea; aka groundnut

	grass
	crop
!	include 1			
	pathway "c3"
	pstemp_min -5	
	pstemp_low 10	
	pstemp_high 30	
	pstemp_max 45	

	sdatenh 140	! for initialization
	sdatesh 320	! for initialization
	tb 14		! base temperature
	trg 14		! temperatures have a vernalizing effect until trg
	pvd 0
	psens 1		! temporary, should be adapted to climate and precocity ?
	pb 0		! not yet implemented
	ps 24		! not yet implemented
	phu 1500
	hlimitdatenh 330	! for initialization
	hlimitdatesh 146	! for initialization; 
	firstsowdatenh_prec 100
	firstsowdatesh_prec 280		

!!	fphuc 0.15
!!	flaimaxc 0.01
!!	fphuk 0.5
!!	flaimaxk 0.95
	fphusen 0.75			! SWAT 0.9

	shapesenescencenorm 0
	flaimaxharvest 0
!!	laimax 4	! SWAT							;	Increase to 8.5 ? (Kiniry 2005)
	hiopt 0.4	! SWAT
	himin 0.3
	ifsdcalc 1
	ifsdprec 1
	tempspring 15	
)

group "TeRa" (

	! Rape for part of RIVM's oil crops  pheno Pascalle; Brassica napus; aka canola

	grass
	crop
!	include 1			
	pathway "c3"
	phengdd5ramp 500
	pstemp_min -5	
	pstemp_low 10	
	pstemp_high 30	
	pstemp_max 45	

	sdatenh 300	! for initialization, otherwise calculated to be adapted to climate and precocity
	sdatesh 120	! idem
	tb 0		! base temperature
	trg 12		! temperatures have a vernalizing effect until trg
	pvd 0		! not implemented since calculated to be adapted to climate
	psens 1		! temporary, should be adapted to climate and precocity ?
	pb 8		! not yet implemented
	ps 20		! not yet implemented
	phu 2500	! not implemented since calculated to be adapted to climate
	hlimitdatenh 240! for initialization
	hlimitdatesh 60	! idem

!!	fphuc 0.05			! SWAT 0.15
!!	flaimaxc 0.01			! SWAT 0.02
!!	fphuk 0.5			! SWAT 0.45
!!	flaimaxk 0.95
	fphusen 0.85			! SWAT 0.9

	shapesenescencenorm 1
	flaimaxharvest 0
!!	laimax 4.5	!SWIM		SWAT Argentina			;		 increase to 5 ? (Wright, Australia 1988; Franzaring, Stuttgart 2008)
	hiopt 0.3	!?		SWAT Argentina			;			winter rapeseed 0.4 (Frick et al. 1994)
	himin 0.15			! SWAT 0.01 !!
	ifsdcalc 1
	ifsdtemp 1
	ifsdautumn 1
	ifsdspring 1
	ifsdprec 0
	tempautumn 17
	tempspring 5	! 12 in Bondeau's code, ändra till 11 och 5
	forceautumnsowing 0	! 0 No forcing, 1 Autumn, 2 Spring
)

pft "CC3G" (
	CC3G
	include 1
)

pft "CC4G" (
	CC4G
	include 1
)

pft "TeWW" (

	TeWW
	include 1
)

pft "TeWW_Nlim" (

	TeWW
!	include 1
	nlim 1

!	sdatenh 150 !330

	sla 45	
	cton_leaf_min 7.0
	a1 0.53 
	b1 0.00 
	c1 7.63 
	d1 0.55
	a2 0.88
	b2 0.09
	c2 13.99
	d2 0.65
	a3 0.00 
	b3 1.00 
	c3 8.32
	d3 1.15

	T_vn_min -1.3 !-1.3 - -1
	T_vn_opt 4.9 !2 - 4.9
	T_vn_max 15.7!15 - 15.7

	T_veg_min 0.0 !
	T_veg_opt 24.0 !
	T_veg_max 35.0 !

	T_rep_min 8.0 !0 - 8
	T_rep_opt 29.0 !
	T_rep_max 40.0 !
	
	photo 9.5 0.34 0.0	!photoperiod, critical omega short-day-plant

	dev_rate_veg 0.03
	dev_rate_rep 0.042 !0.04545

	fertrate 0.4 0.5
	fertdates 0 30
	N_appfert 0.01
)

pft "TrRi" (

	TrRi
	include 1
)

pft "TeCo" (

	TeCo
!	include 1
)

pft "TeCo_Nlim" (

	TeCo
!	include 1
	nlim 1

	sla 43.2
	cton_leaf_min 10.0

	a1 0.24 
	b1 1.22 
	c1 18.10 
	d1 1.12
	a2 0.68 
	b2 -0.06 
	c2 12.45 
	d2 0.81
	a3 0.00 
	b3 1.00 
	c3 28.52 
	d3 1.03


	T_vn_min 0
	T_vn_opt 0
	T_vn_max 0

	T_veg_min 10.0 !
	T_veg_opt 28.0 !
	T_veg_max 47.0 !

	T_rep_min 10.0 !
	T_rep_opt 28.0 !
	T_rep_max 47.0 !

	dev_rate_veg 0.0265
	dev_rate_rep 0.017

!photoperiod, critical omega short-day-plant
	photo 12.0 0.02619 1.0


	fertrate 0.4 0.5
	fertdates 0 30
	N_appfert 0.005
)

pft "TrMi" (

	TrMi
!	include 1
)

pft "TePu" (

	TePu
!	include 1
)

pft "TeSb" (

	TeSb
!	include 1
)

pft "TrMa" (

	TrMa
!	include 1
)

pft "TeSf" (
	
	TeSf
!	include 1	
)

pft "TeSo" (

	TeSo
!	include 1	
)

pft "TrPe" (

	TrPe
!	include 1
)

pft "TeRa" (

	TeRa
!	include 1
)

pft "CC3Girr" (

	CC3G
	include 1
!	hydrology "irrigated"	
)

pft "CC4Girr" (

	CC4G
	include 1	
!	hydrology "irrigated"	
)

pft "TeWWirr" (

	TeWW
	include 1
!	hydrology "irrigated"	
)

pft "TrRiirr" (

	TrRi
	include 1
!	hydrology "irrigated"	
)

pft "TrRiirr2" (

	TrRi
	include 1
!	tb 8
!	hydrology "irrigated"	
)

pft "TeCoirr" (

	TeCo
!	include 1	
!	hydrology "irrigated"	
)

pft "TrMiirr" (

	TrMi
!	include 1	
!	hydrology "irrigated"	
)

pft "TePuirr" (

	TePu
!	include 1	
!	hydrology "irrigated"	
)

pft "TeSbirr" (

	TeSb
!	include 1	
!	hydrology "irrigated"	
)

pft "TrMairr" (

	TrMa
!	include 1	
!	hydrology "irrigated"	
)

pft "TeSfirr" (
	
	TeSf
!	include 1	
!	hydrology "irrigated"		
)

pft "TeSoirr" (

	TeSo
!	include 1
!	hydrology "irrigated"		
)

pft "TrPeirr" (

	TrPe
!	include 1
!	hydrology "irrigated"	
)

pft "TeRairr" (

	TeRa
!	include 1
!	hydrology "irrigated"	
)



pft "CC3G_ic" (
	C3G
	landcover "cropland"
	laimax 4
!	intercrop "nointercrop"	
	isintercropgrass 1
	harv_eff 0.0
	harv_eff_ic 0.0
	res_outtake 0.0			! not used by crop grass
	leaflong 1			! as in crop
)

pft "CC4G_ic" (
	C4G
	landcover "cropland"
	laimax 4
!	intercrop "nointercrop"	
	isintercropgrass 1
	harv_eff 0.0
	harv_eff_ic 0.0
	res_outtake 0.0			! not used by crop grass
	leaflong 1			! as in crop
)
