-4.0 56.5 UKGri;UK1;v02;0.8603;1.9138;0.6063;41.026;0;1;1;0;1;1;0;0;0;0;0;700;80;2;BNE;IBS;;;;2202;47;;;
-1.0 44.5 FRLBr;FR2;v02;1.0351;-0.5837;1.1014;-21.407;1;1;1;0;1;0;0;1;0;0;0;700;70;1;BINE;;;;;1300;;;;
4.5 51.0 BEBra;BE2;v02;0.9452;0.2265;0.9947;-0.2996;0;1;1;0;1;1;1;0;1;1;1;2050;29;2;BINE;TeBS;;;;300;256;;;
12.0 41.5 ITCpz;IT2;v02;0.8492;0.2112;0.8103;18.464;0;1;0;0;1;1;1;1;1;1;1;600;50;1;TeBE;;;;;1500;;;;
13.5 41.5 ITCol;IT1;v02;1.0147;-7.8384;1.2123;30.273;1;1;1;1;1;1;1;1;0;0;0;1000;0;1;TeBS;;;;;900;;;;
19.0 64.0 SEFla;SW2;v02;0.9176;1.3764;0.8582;0.8854;1;1;1;0;0;1;1;0;0;0;0;600;69;1;BNE;;;;;2100;;;;
-20.5 63.5 ISGun;IS1;v02;0.9127;0.5879;0.618;4.6938;1;1;1;0;0;0;0;0;0;0;0;800;93;1;IBS;;;;;10000;;;;
24.0 61.5 FIHyy;FI1;v02;0.9537;0.2503;1.249;-9.3058;1;1;1;1;1;1;1;1;0;0;0;1000;62;1;BINE;;;;;2500;;;;
11.5 55.0 DKSor;DK1;v01;0.9876;-0.502;1.1738;7.3361;1;1;1;1;1;1;1;1;0;1;0;1500;22;2;TeBS;BNE;;;;387;43;;;
17.0 60.0 SENor;SW1;v02;1.0148;-0.0885;0.8079;24.679;1;1;1;1;0;0;0;1;0;0;0;1000;0;2;BINE;BNE;;;;300;300;;;
5.5 52.0 NLLoo;NL1;v01;1.0143;-0.3133;0.9838;13.509;1;1;1;1;1;1;1;1;0;0;0;600;20;1;BINE;;;;;620;;;;
7.0 48.5 FRHes;FR1;v02;0.8999;0.827;0.8422;32.606;0;1;1;1;1;1;1;1;0;0;0;1600;60;2;TeBS;IBS;;;;3720;100;;;
13.5 50.5 DETha;GE2;v02;0.9125;0.5266;1.3653;7.3893;1;1;1;1;1;1;1;1;0;0;0;1500;0;1;BNE;;;;;480;;;;
6.0 50.0 BEVie;BE1;v02;0.9295;-0.8271;0.5889;19.94;1;1;1;1;1;1;1;1;0;0;0;1250;10;2;TeBS;BNE;;;;145;49;;;
