1 BNE
0.0	0.0	0.9
2 BINE
1.0	1.0	0.0
3 BNS
1.0	0.5	0.0
4 TeBS
0.1	1.0	0.0
5 IBS
1.0	0.0	0.1
6 TeBE
0.0	0.0	0.0
7 TrBE
0.0	0.6	1.0
8 TrIBE
1.0	0.7	0.4
9 TrBR
0.9	0.0	1.0
10 C3G
1.0	0.9	0.6
11 C4G
0.2	0.0	0.2
12 No vegetation
1.0	1.0	1.0
