18.7647	68.3588	2.0	Abisko1	
18.7655	68.3588	2.0	Abikso2
18.7664	68.3588 1.0     Abikso3
18.7647	68.3579	0.0	Abisko4	
18.7655	68.3579	0.0	Abikso5
18.7664	68.3579 0.6     Abikso6
18.7647	68.3571	0.2	Abisko7	
18.7655	68.3571	0.8	Abikso8
18.7664	68.3571 20.8     Abikso9
