18.7655	68.3588	538.28	Abikso2
18.7664	68.3588 376.88 Abikso3
18.7647	68.3579	0.0	Abisko4	
18.7655	68.3579	0.0	Abikso5
18.7664	68.3579 216.73 Abikso6
18.7647	68.3571	59.473	Abisko7	
18.7655	68.3571	252.263	Abikso8
18.7664	68.3571 252.263 Abikso9
18.7647	68.3588	538.28	Abisko1	
